45,41,0,1,3,34,5,0,1,2,2,0,2,2,0,0,0,0,0,1,1,0,0,1,1
45,15,0,0,1,30,2,0,1,1,2,1,1,2,2,0,1,2,2,1,0,0,0,1,1
45,0,0,0,0,32,1,0,1,0,1,1,1,0,0,0,1,0,1,1,0,0,0,0,0
45,36,0,0,4,33,0,0,1,0,1,1,0,0,0,0,0,1,0,1,1,0,0,1,0
45,11,0,0,3,30,2,0,1,0,0,1,1,0,0,1,1,0,0,1,0,0,0,1,1
45,8,0,1,3,44,5,0,0,2,0,1,0,0,0,2,0,1,0,1,0,0,1,1,1
44,45,0,1,1,24,4,1,1,1,0,1,1,0,4,1,1,2,2,1,1,0,0,0,1
21,45,0,0,2,28,2,0,1,0,0,1,0,0,0,0,1,0,0,1,0,0,0,1,1
45,32,0,0,0,23,2,0,1,0,1,0,0,0,0,1,1,0,2,1,2,2,0,1,0
45,10,0,1,3,34,2,1,0,2,0,1,1,0,0,0,1,1,1,1,0,0,0,1,1
28,45,1,0,2,41,0,1,1,0,2,0,2,1,2,1,1,2,2,2,2,2,0,0,1
45,36,0,1,1,39,2,0,0,0,1,1,1,0,2,2,1,1,1,1,0,0,0,1,1
45,2,0,0,3,35,5,0,1,2,2,0,2,0,3,0,0,1,1,1,1,0,0,1,1
44,45,0,1,3,22,1,0,1,2,2,1,1,2,4,1,1,1,2,0,2,2,0,1,1
45,41,0,1,3,22,5,0,1,0,1,0,0,0,3,2,0,1,1,1,0,1,1,0,1
45,10,0,1,3,25,2,0,0,2,2,1,1,2,0,0,1,1,0,1,1,0,0,1,1
45,2,0,0,4,24,3,0,1,0,1,1,0,0,0,0,0,1,0,1,0,1,0,0,0
45,18,0,1,3,28,2,0,1,2,0,1,1,0,2,0,0,1,0,1,0,1,0,1,1
45,41,0,0,0,39,2,0,1,2,2,2,2,2,4,1,1,2,2,1,1,2,0,1,0
44,45,1,0,1,31,4,0,1,0,0,1,1,0,0,0,1,1,2,1,0,0,0,1,1
45,41,1,0,0,36,0,0,1,1,2,1,1,0,2,0,1,1,2,1,1,2,0,1,1
42,45,0,0,4,28,1,0,1,1,0,1,1,0,0,1,1,0,0,1,0,0,0,1,0
45,7,0,1,3,30,3,0,0,2,2,2,2,2,2,0,0,1,1,1,1,1,1,0,1
45,42,0,1,3,33,2,1,1,2,2,2,2,2,2,1,1,1,2,0,0,2,0,1,1
38,45,0,0,3,19,4,0,1,0,0,1,1,0,2,2,2,1,0,1,1,0,0,1,1
45,29,0,0,3,39,4,1,1,1,0,1,1,0,0,0,0,1,1,1,0,1,0,0,1
45,5,0,1,3,35,4,0,1,2,2,1,1,0,2,0,0,1,1,1,1,0,0,1,1
45,11,0,1,3,42,4,1,1,0,0,1,0,0,0,0,1,1,2,1,0,0,0,1,1
44,45,0,0,4,27,4,0,1,1,0,1,1,0,0,1,1,1,2,1,2,0,0,1,0
44,45,0,0,0,26,4,0,1,0,0,1,0,0,4,1,1,1,1,1,1,0,1,1,0
45,44,0,1,3,33,0,0,0,1,2,1,1,0,0,1,1,1,2,0,0,0,0,1,1
44,45,0,1,4,23,0,1,1,0,0,1,1,0,0,1,1,1,2,0,2,0,0,1,0
45,2,0,1,3,25,5,0,1,2,2,0,0,0,0,0,1,1,1,1,1,2,0,2,1
6,45,0,0,2,33,2,1,1,1,0,1,1,0,2,0,1,1,1,1,0,0,1,1,1
45,29,0,0,3,40,5,1,1,2,2,2,2,2,0,2,0,0,0,1,0,1,1,1,1
44,45,0,0,0,28,4,0,1,0,0,1,1,2,4,1,1,1,2,0,0,2,0,1,0
7,45,0,0,4,29,0,1,1,1,2,1,1,0,1,0,0,2,2,1,0,0,0,1,0
20,45,0,0,1,30,4,0,1,1,0,1,1,1,4,0,0,1,1,0,0,0,0,1,0
0,45,1,1,3,22,4,1,1,0,1,2,2,0,2,0,1,1,2,1,2,1,1,1,1
44,45,0,1,4,27,5,0,0,1,2,1,1,2,0,0,1,0,0,1,2,2,0,0,0
7,45,0,0,3,39,1,0,0,2,2,2,2,2,4,2,1,1,2,1,0,1,1,1,1
45,11,0,1,3,31,2,1,1,2,0,1,1,0,0,1,1,2,2,1,1,0,0,1,1
5,45,1,0,4,31,0,0,1,1,2,1,1,1,0,1,1,2,2,1,0,0,0,1,1
28,45,1,0,3,32,0,0,1,1,0,1,1,2,3,0,1,1,2,1,0,1,0,1,1
45,37,0,1,3,41,5,0,1,2,2,1,2,0,0,0,1,1,1,1,0,1,0,1,0
1,45,1,0,3,24,0,0,1,2,2,0,0,2,2,1,1,1,1,0,0,2,0,1,0
44,45,2,0,3,23,2,1,1,0,0,0,0,0,4,0,1,1,0,0,0,1,0,1,1
45,19,0,1,2,31,4,0,1,0,1,0,0,2,0,1,1,2,2,0,0,2,0,1,1
45,29,0,0,1,32,4,1,1,2,2,1,1,0,0,0,1,1,0,1,1,1,0,1,1
45,2,0,0,0,45,4,1,1,2,0,1,1,0,0,2,0,1,0,1,0,0,0,1,0
45,42,0,1,3,29,5,1,0,2,2,1,2,2,4,0,1,1,0,1,1,2,0,1,0
45,32,0,0,2,36,5,0,1,2,2,2,2,2,1,1,1,1,2,1,1,1,0,1,0
45,39,1,1,3,33,0,1,1,1,2,1,1,2,4,0,0,2,2,1,1,2,0,1,1
45,2,0,1,4,21,5,0,1,2,2,2,2,2,0,1,1,1,2,1,0,2,0,1,0
45,28,0,1,3,26,2,1,1,0,0,1,1,0,0,0,1,0,0,1,1,0,0,0,0
44,45,0,0,1,37,4,0,1,1,0,1,1,0,0,2,1,2,2,0,2,1,0,1,1
22,45,0,0,4,27,2,0,1,1,0,1,1,0,1,2,1,1,0,1,0,1,1,1,0
44,45,0,0,4,27,4,0,1,1,0,1,2,2,0,0,1,2,1,1,2,2,0,1,0
45,2,0,0,3,45,5,0,1,0,1,0,0,0,0,2,2,1,1,1,1,0,0,1,1
45,2,1,1,3,30,4,1,1,0,1,1,0,0,3,2,1,0,0,1,0,0,0,1,1
44,45,0,1,4,34,4,0,1,1,0,1,1,2,1,1,1,1,2,1,2,1,1,1,0
7,45,0,0,2,29,0,0,1,1,0,1,1,0,4,2,0,1,0,1,1,0,0,1,0
17,45,0,0,3,32,1,0,1,1,0,1,1,0,3,2,2,1,0,1,1,1,1,0,0
41,45,0,0,4,22,4,0,1,0,0,1,1,0,0,1,1,1,2,0,0,1,0,1,0
29,45,0,0,2,27,2,0,1,1,2,1,2,1,1,2,1,0,0,1,0,1,1,1,0
45,2,0,0,3,27,2,0,1,0,1,1,1,0,1,0,0,1,1,1,1,0,0,0,1
45,39,1,1,3,43,0,1,1,2,1,1,0,0,0,0,0,1,1,1,0,0,0,1,1
44,45,0,1,3,39,5,0,0,1,0,1,1,2,4,0,0,1,2,0,0,2,0,1,1
45,45,0,1,3,43,3,0,0,2,1,1,0,0,0,0,1,0,1,1,0,1,0,1,0
22,16,0,0,3,26,4,0,1,1,0,1,1,2,4,0,1,1,2,1,0,2,0,1,0
29,45,0,0,3,32,4,0,1,1,0,1,1,0,4,1,1,1,2,0,2,0,0,1,1
17,45,0,0,4,42,5,1,1,0,1,2,2,2,4,1,1,1,0,1,0,2,0,1,0
44,45,0,0,3,33,2,0,1,0,1,1,1,0,0,0,1,1,0,1,0,0,0,1,1
17,45,0,0,4,27,2,0,1,0,1,1,1,0,0,1,1,1,2,2,2,0,0,1,0
44,45,0,0,4,28,2,0,1,0,1,1,1,0,0,1,0,1,2,0,2,0,0,1,0
15,45,0,0,4,26,2,0,1,1,0,1,1,0,4,2,1,0,0,1,1,1,1,1,0
21,45,1,0,3,30,0,1,1,1,0,1,1,0,1,1,1,1,1,1,0,1,0,1,0
45,32,1,1,2,31,0,1,1,1,2,1,1,0,1,2,1,0,0,1,1,1,1,1,0
45,2,1,0,4,33,0,0,1,0,0,1,1,0,0,1,1,2,2,1,0,0,0,1,0
45,18,0,1,3,35,0,0,0,1,2,1,1,2,0,1,1,1,2,1,1,2,0,1,1
7,45,0,1,2,37,5,0,0,2,2,2,2,0,0,0,0,1,1,1,1,0,0,1,1
29,45,0,0,3,51,2,1,1,1,2,2,1,1,1,2,2,0,0,1,1,0,1,1,1
45,37,0,1,3,26,4,1,1,0,0,1,0,0,2,0,1,1,1,0,0,0,0,1,1
2,10,1,1,1,8,0,1,1,2,2,2,2,2,4,2,2,2,2,2,2,2,1,2,1
45,1,0,0,2,24,2,0,1,2,2,2,1,0,0,1,1,1,2,1,1,0,0,1,1
45,29,1,0,0,30,0,1,1,1,2,1,1,0,0,0,1,1,1,1,0,0,0,1,0
45,36,0,1,4,32,4,1,1,0,0,1,1,0,2,1,1,2,2,1,1,2,0,1,0
45,28,0,0,0,35,3,1,1,0,1,1,1,0,0,0,0,1,0,1,1,0,0,0,0
36,45,0,0,0,26,2,0,1,1,1,1,0,0,1,1,1,1,0,1,0,0,0,1,0
7,45,0,0,1,29,4,0,1,1,0,1,1,0,1,2,1,0,0,1,0,0,0,1,0
44,45,0,1,2,37,4,0,1,1,0,1,1,2,2,2,1,1,2,1,0,1,1,1,1
45,25,0,0,1,29,5,1,0,2,0,1,1,0,2,1,1,1,2,0,0,0,0,0,1
17,45,0,1,1,33,2,0,1,0,1,2,1,2,2,1,1,1,2,2,2,2,0,1,1
1,45,0,0,4,22,4,1,1,0,0,0,1,0,2,1,1,1,1,1,1,0,0,1,0
28,45,0,1,0,35,1,0,1,2,0,1,1,2,0,2,1,0,0,1,0,0,0,1,0
45,37,0,0,1,34,0,0,1,0,0,1,2,0,4,1,1,1,2,1,0,2,0,1,0
45,31,0,0,2,28,4,0,1,2,2,0,2,2,4,1,1,1,1,1,2,0,0,0,1
44,45,0,1,2,34,2,0,0,2,2,2,2,2,4,1,1,1,2,0,0,2,0,0,0
45,24,0,0,3,38,2,1,1,0,1,1,0,0,0,0,0,1,2,1,0,1,0,1,0
42,45,0,1,4,27,2,0,1,1,0,1,1,0,0,0,1,1,2,1,2,1,0,1,0
44,45,0,0,4,29,4,0,0,1,0,1,1,2,4,1,1,2,2,0,2,2,0,1,0
45,39,0,1,0,40,5,0,1,2,2,2,0,2,0,2,0,0,1,1,0,2,0,2,0
45,2,0,0,4,30,5,0,1,2,2,2,2,2,4,1,1,1,0,1,1,2,0,0,0
15,45,0,0,0,28,2,0,1,1,0,1,1,0,0,0,1,1,1,1,1,0,0,1,0
44,45,0,0,0,28,2,0,1,0,0,1,0,2,2,1,1,2,2,0,0,0,0,0,0
45,41,0,1,1,27,5,0,1,2,2,2,2,2,3,0,1,2,1,1,0,1,1,0,1
45,41,0,1,2,36,4,0,1,0,0,1,0,0,0,2,0,1,0,1,1,0,0,0,1
45,2,0,0,3,32,5,0,1,2,0,1,2,0,2,1,1,2,1,0,2,0,0,1,1
45,0,1,0,3,36,0,0,0,1,2,1,1,1,3,1,1,0,0,1,1,1,1,1,1
45,2,0,1,0,35,5,0,1,2,1,0,1,2,2,0,1,0,0,1,1,0,0,0,1
15,45,0,0,4,43,1,0,1,0,0,1,1,0,0,1,1,1,2,0,0,0,0,1,0
7,45,0,0,0,24,2,0,1,0,0,1,1,0,0,1,1,1,2,0,2,0,0,1,1
45,29,0,0,4,5,1,0,1,0,1,1,1,0,2,1,1,2,2,1,1,2,0,1,0
45,10,0,0,2,40,5,0,1,2,2,2,2,2,0,1,1,1,1,1,0,0,0,1,0
45,11,0,0,4,27,2,1,1,0,1,1,0,0,4,1,1,2,2,0,0,2,0,1,0
45,36,0,1,4,27,4,1,1,2,2,1,1,0,2,0,0,1,1,1,0,2,0,1,0
45,22,0,0,2,32,4,0,1,2,1,1,0,0,0,0,1,0,1,1,0,0,0,1,0
45,19,0,0,3,34,3,0,0,2,2,2,2,2,2,0,1,1,2,1,1,2,0,0,1
45,2,0,1,3,47,5,0,1,2,2,2,2,0,4,1,1,1,2,1,2,2,0,1,1
44,45,1,0,2,32,0,0,1,1,2,2,2,2,4,1,1,1,2,1,2,1,1,1,1
26,45,0,0,0,29,4,1,1,1,0,1,1,1,0,0,0,0,2,0,2,1,0,1,0
45,41,0,0,4,25,5,1,1,2,2,2,2,0,0,1,1,2,2,0,2,2,0,1,0
44,45,1,0,3,35,0,0,1,0,1,1,0,0,2,1,1,1,2,1,1,0,0,1,0
45,2,1,1,1,25,0,1,1,0,1,1,1,2,1,2,1,1,0,1,0,1,1,0,1
45,2,0,1,2,57,5,0,1,2,2,1,1,0,0,0,1,1,2,1,0,1,0,1,1
45,32,0,1,4,30,5,1,1,0,1,1,0,0,0,0,0,1,1,1,0,0,0,0,0
44,45,1,0,3,34,0,1,1,1,0,1,1,2,1,1,1,1,1,1,1,2,0,1,1
13,45,1,1,1,35,0,0,1,1,2,2,1,0,2,1,1,1,1,0,2,2,0,1,1
45,3,0,0,0,32,4,1,1,1,0,1,1,0,4,1,1,2,2,1,1,0,0,1,0
21,45,0,0,2,35,0,0,1,0,0,1,1,1,0,0,1,1,0,1,0,1,0,0,0
45,2,0,0,3,31,1,0,1,2,2,1,1,0,2,0,1,1,0,1,0,1,0,1,1
15,45,1,0,3,50,2,1,1,1,0,1,1,0,0,0,0,1,2,1,1,0,0,1,1
17,45,0,0,4,31,4,0,1,0,0,1,0,0,2,1,1,1,2,0,0,0,0,1,0
44,45,0,0,4,27,1,0,0,0,1,0,0,1,4,0,0,2,2,1,1,0,0,1,0
45,18,0,1,2,32,5,0,0,2,2,2,2,2,0,1,1,1,2,1,2,2,0,1,1
45,29,0,1,3,29,2,0,1,0,0,1,1,1,1,2,1,1,1,1,0,0,0,1,1
45,2,0,0,0,33,3,0,1,2,1,2,2,0,4,0,1,1,2,1,1,2,0,0,0
45,41,0,1,3,42,2,1,1,2,2,2,2,2,4,0,1,1,1,0,2,0,0,1,1
0,45,0,0,0,33,5,0,1,0,1,0,0,2,4,1,1,1,2,0,2,2,0,1,0
45,2,0,0,4,25,4,0,1,0,0,1,1,0,0,1,1,1,2,1,1,0,0,1,0
45,15,0,0,4,24,5,0,1,2,2,0,0,2,0,2,1,0,0,1,0,0,0,1,0
45,2,0,1,2,23,0,0,1,1,2,1,1,0,0,0,1,1,2,1,1,2,0,1,1
44,45,1,0,2,26,0,1,1,1,1,0,0,0,1,1,1,2,2,0,0,2,0,1,1
44,45,0,1,0,31,4,0,1,0,1,1,0,0,2,1,1,1,1,1,1,0,0,1,1
45,18,2,1,3,35,0,1,1,1,0,1,1,1,1,0,0,1,0,1,1,0,0,0,1
45,30,0,0,1,26,2,0,0,0,1,1,1,0,0,2,0,1,2,1,0,1,0,1,0
45,2,0,0,3,27,5,0,1,0,1,0,0,0,4,2,1,0,0,1,0,1,0,1,0
44,45,0,0,4,19,4,0,1,2,0,1,2,0,4,1,1,2,2,1,1,2,0,1,0
45,36,0,1,1,30,5,0,0,2,0,1,1,0,1,2,1,0,0,1,0,1,0,0,1
44,45,0,0,4,21,4,0,1,1,0,1,1,0,0,2,0,1,0,1,1,0,0,0,0
45,36,0,0,4,31,2,0,1,2,0,2,1,2,2,0,1,1,1,1,0,1,0,1,0
44,45,0,0,1,28,4,0,1,1,0,1,1,1,1,2,1,0,0,1,2,2,0,1,0
45,2,0,0,0,40,1,0,1,2,1,1,0,0,0,0,1,1,1,1,0,0,0,1,0
45,15,0,0,0,45,2,1,1,2,2,0,0,0,0,0,1,0,1,1,0,0,0,1,1
45,29,2,0,3,31,4,1,1,0,0,1,1,0,0,1,1,1,2,1,1,0,0,1,1
45,28,0,0,0,32,1,0,1,2,2,1,0,0,0,0,1,1,1,1,1,0,0,1,0
45,7,0,0,3,43,5,0,0,0,0,1,0,0,3,0,1,1,2,1,1,0,0,1,1
45,28,1,0,3,32,0,1,1,0,1,0,0,0,4,1,1,2,2,2,2,0,0,1,1
45,28,0,0,0,43,3,0,1,0,0,1,0,0,0,1,1,2,1,1,1,2,0,1,0
45,42,1,1,1,30,0,1,0,1,2,1,2,2,1,1,1,2,2,1,1,2,0,2,1
45,11,0,0,1,30,0,0,1,1,2,1,1,2,2,1,1,2,2,0,0,2,0,1,1
44,45,0,0,3,23,4,0,1,0,1,0,0,0,0,0,0,1,1,1,0,2,0,0,1
44,45,0,1,0,23,5,0,0,1,0,1,2,0,2,2,0,0,0,1,0,0,0,0,0
5,45,0,1,3,28,1,0,1,1,0,1,1,0,2,1,1,1,1,1,1,0,1,1,0
14,45,0,0,0,34,4,0,1,1,0,1,1,0,2,1,1,2,2,1,0,0,0,1,0
0,45,0,1,0,34,3,0,0,0,0,2,2,0,0,2,0,0,0,1,1,0,1,0,0
45,13,0,1,4,23,2,1,1,2,2,1,0,2,0,0,1,0,1,1,1,0,0,1,0
44,45,0,0,2,29,1,0,1,0,1,1,1,0,2,1,1,1,2,1,0,0,1,1,0
44,45,0,0,2,31,4,0,1,0,1,1,1,0,0,1,1,1,2,1,1,0,0,1,1
45,31,0,1,3,27,1,1,1,0,0,1,0,0,0,1,1,1,0,1,1,2,0,1,1
17,45,1,0,3,25,4,1,1,1,2,1,1,2,2,1,1,1,2,2,2,2,0,1,0
7,45,0,0,3,21,4,1,1,1,2,1,1,0,1,1,1,1,1,0,0,2,0,1,1
45,18,0,0,0,38,2,0,1,2,2,1,1,0,2,0,1,1,2,1,0,1,1,1,0
15,45,0,1,4,27,3,0,0,2,2,0,1,2,2,0,0,0,1,1,0,0,1,1,0
45,36,0,0,0,32,4,0,1,2,2,2,2,0,2,1,1,2,2,1,0,2,0,1,0
44,45,1,0,3,24,4,1,1,1,0,1,1,0,0,0,0,1,1,1,0,0,1,2,1
5,45,0,0,2,27,4,0,1,1,2,1,1,0,2,0,1,1,1,1,0,1,0,1,0
7,45,0,0,3,29,1,0,1,0,1,0,0,2,2,0,1,1,1,1,0,2,0,1,1
44,45,0,1,3,32,0,0,0,2,2,2,2,2,2,0,0,1,1,1,0,1,0,1,1
44,45,0,1,0,29,1,0,1,0,1,0,0,0,0,0,0,0,0,1,1,1,0,1,1
44,45,0,0,4,32,5,0,0,0,1,1,0,0,0,0,1,1,1,1,2,0,0,1,0
45,11,0,0,4,34,5,0,0,2,1,2,0,0,0,0,0,1,2,1,1,0,0,1,0
45,2,0,1,3,35,1,0,1,2,2,1,1,0,3,0,0,1,1,1,0,1,1,1,1
17,45,1,1,1,23,2,1,1,0,0,0,0,0,0,1,0,2,2,0,2,0,0,1,1
45,41,0,1,3,44,4,1,1,2,2,2,2,2,1,0,0,1,2,1,0,1,0,1,1
45,37,0,1,0,31,5,0,0,2,1,1,0,0,0,2,2,0,0,1,1,0,0,0,0
45,2,0,0,3,35,5,0,1,0,1,2,0,0,0,0,1,1,0,1,1,0,0,1,0
15,45,0,0,4,27,4,0,1,0,1,0,0,0,0,1,1,2,2,1,1,2,0,1,0
44,45,1,1,3,32,0,1,1,0,1,0,0,0,4,0,0,2,1,0,0,0,1,1,1
17,45,0,1,3,30,1,0,1,0,1,1,1,0,1,1,1,2,2,0,0,1,0,0,1
45,41,0,0,4,34,4,0,1,2,0,1,1,0,2,1,1,2,2,0,0,2,0,0,0
7,45,1,0,0,29,2,1,1,2,2,1,1,2,3,2,1,1,0,1,2,1,0,1,0
44,45,1,1,1,24,0,1,1,0,1,1,1,0,0,0,1,1,1,1,0,0,0,1,0
17,45,0,0,4,25,3,0,1,2,2,0,2,2,2,0,0,1,2,2,2,2,0,1,0
45,2,0,0,4,60,5,0,1,2,0,0,2,0,0,1,1,1,2,0,0,2,0,1,0
45,4,0,0,2,18,0,1,1,1,0,1,1,2,4,1,1,1,0,1,1,0,0,1,1
44,45,0,0,2,29,4,0,1,0,0,1,1,0,0,0,1,1,0,1,0,0,0,0,1
45,23,0,0,0,27,2,0,1,0,1,0,0,0,0,1,1,2,2,0,0,0,0,1,0
45,4,0,0,4,39,2,1,1,2,0,1,1,0,0,2,0,0,0,1,1,0,0,1,0
45,18,0,0,3,32,1,0,1,1,2,1,1,0,0,0,0,1,1,1,1,1,0,1,0
44,45,1,0,3,36,0,1,1,0,1,0,0,0,0,0,1,1,0,1,1,0,0,0,0
44,45,0,0,0,29,4,0,1,0,0,1,1,0,0,0,1,1,0,1,0,0,0,1,0
44,45,0,0,4,33,2,0,1,0,0,1,1,0,0,1,1,2,2,2,2,0,0,1,0
45,22,0,0,3,29,4,0,1,2,2,1,2,2,4,1,1,0,1,1,1,2,0,1,1
45,28,0,0,4,35,4,0,1,0,1,0,0,2,0,1,1,0,0,1,1,2,0,1,0
44,45,0,0,4,33,4,0,1,0,0,1,1,0,0,0,1,1,1,1,0,0,0,1,0
45,37,1,0,3,30,2,1,1,0,1,0,0,0,0,1,1,1,1,1,2,0,0,1,1
45,11,0,1,3,33,2,0,1,0,1,1,1,0,0,0,1,1,1,1,1,0,0,1,1
44,45,0,0,4,32,4,0,1,0,0,1,1,0,4,1,1,0,2,1,0,1,0,1,0
44,45,0,0,4,34,4,1,1,1,0,1,1,1,1,2,0,0,0,1,2,1,1,1,0
44,45,1,1,3,54,0,1,1,0,1,1,1,0,4,1,1,1,2,2,2,0,1,1,1
45,2,0,1,3,42,4,1,1,0,0,1,0,0,0,0,0,1,1,1,1,0,0,1,1
45,18,0,0,4,35,5,1,1,2,1,0,2,0,1,2,2,1,0,1,0,0,0,1,0
45,15,0,0,1,32,4,1,1,2,1,0,0,2,4,1,1,2,2,1,1,2,1,0,1
39,45,1,1,1,38,0,1,1,1,2,1,1,2,2,0,0,1,1,1,0,0,1,0,1
45,20,0,1,1,19,2,0,0,0,1,1,1,0,1,0,0,0,0,1,0,1,0,2,1
45,19,0,0,0,51,5,1,1,2,2,2,2,2,4,1,1,2,2,1,1,2,0,1,0
45,0,0,1,3,38,2,1,1,2,0,1,1,0,0,0,1,1,1,1,1,0,0,1,1
45,32,0,0,2,38,2,1,1,2,0,1,1,0,0,2,1,0,0,1,0,1,0,1,1
45,41,0,0,3,39,2,0,1,0,1,1,0,0,0,2,1,0,0,1,2,0,0,0,0
45,37,0,1,4,24,3,0,0,1,0,1,1,1,3,2,0,0,0,1,0,1,1,0,0
45,28,0,0,1,29,2,0,1,2,2,1,1,2,4,1,1,2,2,0,0,2,0,1,1
22,45,0,1,0,26,1,0,1,0,0,0,0,0,0,0,1,1,0,1,1,2,0,0,0
45,41,0,0,3,26,4,0,1,2,2,1,1,2,0,0,1,1,0,1,0,0,0,1,1
45,13,0,0,4,31,2,0,0,2,2,2,2,2,0,1,1,2,2,1,1,0,0,1,0
45,2,0,0,0,36,4,1,1,2,0,1,1,0,0,0,0,1,1,1,1,1,0,0,1
44,45,0,0,3,34,2,0,1,1,2,1,1,0,2,0,0,2,1,1,1,0,0,1,0
17,45,0,0,3,43,2,0,0,1,2,0,1,0,2,0,1,1,1,1,2,1,1,1,1
45,39,1,0,0,36,0,0,1,2,0,1,0,0,1,1,1,1,2,2,2,2,0,1,0
45,25,0,0,3,34,2,0,1,0,0,1,1,0,0,0,1,2,2,1,0,0,0,1,0
45,31,0,0,4,37,3,0,1,2,0,1,1,0,0,0,0,1,1,1,1,0,0,1,0
45,36,0,1,3,24,5,0,0,2,2,1,0,0,1,2,0,1,1,1,1,1,1,0,0
45,6,0,1,2,43,5,1,1,2,2,1,2,0,0,1,1,1,2,1,1,0,0,0,1
44,45,0,0,0,28,2,0,1,0,1,1,1,0,2,1,1,1,2,0,2,0,0,1,0
45,28,0,0,4,33,4,1,1,2,0,0,2,2,0,1,1,1,2,1,1,2,0,1,0
17,45,0,0,4,29,4,0,1,0,1,1,1,0,2,1,1,1,2,0,2,0,0,1,0
45,10,1,0,1,41,0,1,0,1,2,2,2,2,3,1,1,1,1,1,1,2,1,1,1
7,45,1,0,3,26,0,0,1,1,2,2,1,0,0,1,1,2,2,1,1,2,0,1,0
45,7,0,0,3,28,5,0,1,2,2,1,1,2,1,0,1,1,0,1,0,1,0,1,1
7,45,0,0,0,40,2,0,1,1,0,1,1,0,1,1,1,1,1,1,1,1,0,1,0
45,28,0,1,1,28,1,0,1,0,1,1,0,0,0,0,1,1,1,1,2,0,0,1,1
45,2,0,0,3,29,5,0,1,2,0,2,1,0,0,2,0,0,0,1,1,0,0,1,0
45,30,1,1,2,26,1,1,0,1,0,1,0,1,0,0,1,1,2,1,2,1,0,1,1
45,3,1,0,0,51,0,0,1,1,2,1,1,2,1,1,1,1,1,0,0,0,0,1,0
44,45,0,0,4,32,2,0,1,1,1,1,0,0,0,1,1,0,1,1,0,0,0,1,0
45,6,0,0,4,30,1,0,0,2,0,1,0,0,0,0,1,1,2,1,1,0,0,1,0
45,26,0,0,4,28,2,1,1,0,0,1,1,0,0,0,1,1,0,1,1,0,0,1,0
45,32,0,1,3,38,1,0,1,0,0,1,1,0,0,0,0,1,0,1,1,0,0,1,1
44,45,0,0,3,21,5,0,0,0,0,1,0,0,0,0,1,1,0,1,1,0,0,1,1
44,45,0,0,3,36,5,0,0,2,2,2,2,2,2,0,0,1,1,1,0,0,1,1,1
7,45,0,0,4,26,1,1,1,2,1,0,2,0,2,1,1,1,1,1,1,2,0,1,0
45,41,0,0,1,37,5,0,0,0,0,1,1,0,0,0,1,1,0,1,1,1,0,1,0
45,32,0,0,2,28,4,0,1,0,0,1,1,0,0,1,1,1,1,1,0,0,0,1,0
7,45,0,0,3,32,2,1,1,1,2,1,1,2,3,2,0,1,0,1,0,1,1,2,0
33,45,1,0,1,31,4,1,1,1,0,1,1,0,2,0,1,1,0,1,1,0,0,1,1
45,2,0,1,3,33,5,0,1,2,0,2,2,0,0,2,1,0,0,1,0,0,0,1,1
45,2,0,1,1,32,1,0,1,2,0,1,0,0,0,2,1,1,2,1,1,0,0,0,1
45,18,0,0,3,28,5,0,1,1,2,1,1,2,3,2,1,0,1,1,1,1,0,1,1
3,45,0,0,0,26,4,0,1,2,0,1,1,1,2,0,1,0,0,1,1,0,0,1,0
0,45,0,0,0,27,0,1,1,1,0,1,1,0,0,2,1,0,0,1,0,0,0,1,0
45,2,0,1,3,28,1,0,1,2,2,0,0,0,0,0,1,1,1,1,1,2,0,0,1
45,28,0,1,4,25,2,0,1,0,0,0,0,0,4,1,1,1,2,1,1,0,0,1,0
7,45,0,1,3,25,4,0,1,2,2,1,1,2,2,1,1,1,2,1,1,0,0,0,1
6,45,2,0,0,29,1,1,1,0,1,1,1,0,0,1,1,2,2,2,2,0,0,1,0
20,45,0,1,3,23,5,0,1,0,1,1,0,0,0,2,0,0,0,1,1,0,0,0,1
45,41,0,1,1,30,5,0,1,2,2,2,1,0,3,2,1,1,0,1,1,1,1,1,1
44,45,0,1,1,28,2,0,1,1,0,1,1,0,2,0,0,2,2,1,1,1,0,1,1
45,29,0,1,2,31,5,0,0,0,1,1,0,0,3,2,0,0,0,1,0,1,0,0,1
21,45,0,1,3,25,2,0,1,1,0,1,1,0,0,0,1,1,1,1,0,1,0,1,1
7,45,0,1,3,27,0,0,1,1,2,1,1,2,3,0,1,1,0,1,1,2,0,1,1
45,0,0,1,3,23,2,1,0,0,0,1,0,2,2,0,1,1,1,1,2,2,0,1,1
45,41,0,0,2,27,5,0,1,2,2,1,1,2,0,2,0,0,0,1,1,1,0,0,1
45,42,0,0,4,29,5,0,0,0,1,2,0,2,2,1,1,1,2,1,0,2,0,1,0
0,45,0,0,3,34,5,0,1,2,2,2,2,2,4,1,1,1,2,1,0,2,0,1,0
45,34,0,0,4,29,4,0,1,1,0,1,0,0,1,0,0,1,0,1,1,0,0,1,0
45,31,0,1,3,27,1,0,1,0,1,1,0,0,0,2,1,0,0,1,2,0,0,1,1
45,41,0,0,3,43,1,1,1,2,2,1,2,2,3,2,0,1,0,1,0,1,1,2,1
45,24,0,1,0,33,2,1,1,2,2,2,2,0,0,2,0,2,1,1,1,2,0,1,1
26,45,0,1,3,31,4,0,1,0,0,1,1,0,0,1,1,1,2,0,2,1,0,1,1
45,2,0,1,1,29,1,0,1,2,2,2,2,0,0,1,1,1,2,1,1,0,0,1,0
45,28,0,0,4,26,4,0,1,0,1,1,1,0,2,1,1,2,2,1,0,2,0,0,0
45,15,0,0,1,46,2,1,1,2,2,1,1,0,0,0,1,1,2,1,0,1,0,1,1
44,45,0,0,0,30,2,1,1,0,1,0,0,0,4,1,1,2,2,0,0,2,0,1,0
45,21,1,0,1,33,0,1,1,1,0,1,1,2,2,2,0,1,1,2,2,0,0,1,1
45,31,0,0,2,53,4,1,1,2,2,1,2,0,0,0,0,1,0,1,1,0,0,1,1
45,2,0,0,3,31,3,0,0,1,2,1,0,2,0,1,1,1,0,1,1,1,0,1,1
45,29,0,1,3,26,1,0,1,0,1,1,1,0,0,0,1,1,0,1,0,0,0,1,0
45,19,0,1,3,25,0,1,1,0,0,0,0,0,4,1,1,2,2,0,2,0,0,1,1
28,45,0,0,4,39,5,0,0,2,1,2,0,0,2,0,0,0,1,1,1,2,0,1,0
44,45,0,0,4,48,2,0,1,0,0,1,1,0,0,0,0,0,0,1,1,1,0,1,0
45,42,1,0,2,42,4,1,0,1,2,1,1,0,4,1,1,1,2,0,0,2,0,1,0
45,2,0,1,3,23,5,0,1,2,2,2,2,2,2,2,0,0,0,1,1,0,0,0,1
45,3,0,1,3,25,2,0,1,2,2,0,0,2,0,0,1,1,1,1,0,0,0,1,1
45,6,0,0,1,41,4,1,1,1,1,1,1,0,3,0,0,1,1,0,0,0,0,1,1
45,2,0,0,3,34,4,0,1,0,1,1,1,0,0,2,2,1,0,1,1,0,0,1,1
45,36,0,1,3,35,5,0,0,2,2,1,0,1,4,2,1,1,2,1,2,1,0,1,1
45,41,1,1,3,31,0,1,1,1,0,1,1,2,1,1,1,2,2,0,0,2,0,1,0
39,45,1,0,3,61,0,1,1,1,0,1,1,0,3,2,0,1,2,1,0,1,1,1,1
45,1,0,0,4,35,5,0,0,1,0,1,1,0,0,0,0,0,0,1,1,1,0,1,0
18,45,0,0,4,34,2,1,1,1,0,1,1,0,3,2,0,1,0,1,0,1,0,1,0
44,45,0,0,0,27,0,0,1,0,0,1,0,0,0,1,1,1,2,0,0,0,0,1,0
45,3,0,1,2,27,5,1,1,2,2,1,0,0,0,0,0,0,2,1,1,0,0,0,1
37,45,0,0,3,27,0,1,1,1,0,1,1,2,0,2,1,1,2,1,1,1,0,1,0
45,15,0,1,0,21,5,0,1,0,1,0,0,0,0,1,1,1,1,1,0,0,1,1,0
44,45,0,0,0,43,2,0,1,0,0,1,0,0,0,1,1,2,2,2,2,0,0,1,1
5,45,0,0,4,28,2,0,1,0,0,1,1,0,0,0,1,1,2,0,2,1,1,1,0
45,28,0,0,4,45,5,0,0,2,2,2,2,0,0,1,1,1,1,1,1,2,0,1,0
45,2,0,1,2,28,3,0,1,2,2,2,2,0,1,0,1,0,1,1,1,1,0,0,1
45,26,0,0,4,31,2,1,0,0,0,0,0,0,0,0,1,1,0,1,0,0,0,0,0
45,29,0,0,3,29,4,0,1,0,0,1,1,0,3,2,1,0,0,1,0,1,0,1,0
21,45,1,0,1,45,0,0,1,1,0,1,1,0,3,1,1,0,0,1,1,0,0,1,1
9,45,0,0,3,28,4,0,1,1,2,1,1,0,2,0,0,0,1,1,1,0,0,1,0
44,45,0,1,3,34,5,0,1,0,1,0,0,2,4,1,1,1,2,1,0,2,0,1,1
45,19,0,1,3,33,4,1,1,0,0,0,0,2,4,1,1,2,2,1,0,2,0,1,1
41,45,0,0,2,29,5,0,1,0,1,0,0,0,0,0,0,0,0,1,2,0,1,1,0
45,10,0,0,4,29,5,0,1,0,1,1,1,0,0,0,1,1,2,0,2,1,0,1,0
45,36,2,1,3,33,4,0,1,2,1,1,0,0,0,1,1,2,2,1,0,0,0,1,0
45,41,0,1,1,28,1,1,0,2,2,2,2,2,2,2,1,1,2,1,1,2,0,0,1
44,45,0,0,3,27,5,0,0,1,0,1,1,2,2,0,1,2,2,0,0,1,0,1,1
45,41,0,1,3,26,5,0,1,0,1,1,2,2,3,0,1,1,1,2,2,1,1,1,1
21,45,0,0,1,34,4,0,1,1,0,1,1,0,1,2,0,1,2,1,0,1,0,1,1
7,45,0,0,4,28,4,0,1,2,1,1,0,2,4,1,1,1,2,0,0,2,0,1,0
45,32,0,0,2,30,1,0,0,0,1,1,1,0,0,1,1,1,1,1,1,0,0,1,0
45,8,0,0,0,41,5,0,0,0,0,1,0,0,0,0,1,0,0,1,2,0,0,1,1
44,45,0,1,1,34,2,0,1,1,2,1,1,2,4,0,0,2,2,1,1,1,0,1,1
45,19,0,1,3,25,2,0,1,0,2,1,1,0,2,2,1,1,1,1,0,0,0,1,1
45,43,0,0,3,23,4,0,0,1,0,1,1,1,2,2,2,0,0,1,1,1,0,1,0
44,45,0,0,3,35,4,0,1,1,0,1,1,0,3,0,0,1,2,1,0,1,1,1,0
21,45,0,0,4,25,1,0,1,0,1,1,0,0,0,0,1,1,2,1,1,0,0,1,0
28,45,1,0,3,36,0,0,1,1,0,1,1,0,4,1,1,2,0,1,1,2,0,1,1
45,2,0,1,4,25,3,0,0,0,1,1,1,0,0,0,1,1,1,1,0,0,0,0,0
45,2,0,0,3,25,4,0,1,0,1,1,1,0,1,2,1,1,0,1,0,0,0,0,1
45,45,0,1,4,31,4,0,1,0,1,1,1,0,0,0,1,1,1,1,1,0,0,1,0
45,39,0,0,0,23,2,0,0,0,1,0,0,0,0,1,1,2,2,0,2,2,0,1,0
44,45,1,0,3,30,4,0,1,1,2,1,1,1,3,2,2,0,0,1,1,2,1,1,1
45,36,0,1,4,33,2,0,0,2,0,1,1,2,1,1,1,1,1,1,1,0,0,1,0
45,45,0,1,1,36,1,0,1,1,2,1,1,2,4,1,1,1,1,1,1,0,0,1,1
45,28,0,1,3,28,2,0,1,0,1,1,1,0,0,2,0,1,0,1,0,0,0,0,1
45,32,0,0,3,41,5,0,1,2,2,2,2,2,0,0,1,1,2,0,2,2,1,1,1
45,2,0,0,2,25,4,0,1,2,0,0,1,0,0,0,1,0,0,1,1,0,0,1,1
21,45,0,0,4,24,5,0,1,0,1,0,0,0,0,1,1,0,0,1,1,0,0,1,0
45,32,1,1,3,32,0,1,1,2,2,0,0,0,3,2,0,1,0,1,1,1,0,1,1
7,45,0,0,4,33,1,0,1,2,0,2,2,2,0,1,1,1,2,1,1,0,0,1,0
45,2,0,1,2,37,2,0,0,2,2,2,2,0,0,0,0,2,1,1,0,2,0,0,1
44,45,0,0,4,23,4,0,1,0,1,1,1,0,4,0,1,0,1,1,2,2,0,0,0
17,45,0,0,4,35,2,0,1,1,0,1,1,0,4,0,1,1,1,1,1,0,0,1,0
0,45,0,1,3,26,2,1,1,1,0,1,1,2,0,1,1,2,2,1,0,2,0,1,1
45,19,0,1,0,23,1,0,0,2,0,0,0,2,0,1,1,1,2,0,0,2,0,0,1
45,18,0,0,3,36,5,0,1,0,0,1,1,2,2,1,1,2,2,0,2,0,0,1,0
45,32,0,0,0,24,4,0,1,2,1,1,0,0,4,0,1,1,0,0,0,2,0,1,0
45,40,0,1,4,34,5,0,1,2,1,0,0,0,0,0,1,1,1,1,0,0,1,1,0
45,37,0,0,3,18,4,0,1,0,0,1,0,0,0,2,1,0,0,1,0,0,0,1,1
44,45,1,1,3,39,0,1,1,1,2,2,2,2,1,1,1,2,2,1,0,2,1,1,1
45,15,0,0,2,23,5,0,1,2,2,1,1,2,1,0,1,2,2,1,1,1,0,2,0
45,0,0,1,3,23,1,0,0,0,0,1,1,0,0,1,1,2,2,0,2,0,0,1,1
45,39,1,0,0,50,0,1,1,1,2,1,1,2,2,1,1,1,2,1,0,2,0,1,0
45,10,0,1,2,30,2,0,1,2,0,1,0,0,0,0,1,1,2,1,1,0,0,1,1
44,45,0,1,3,18,0,1,1,0,1,0,0,0,0,0,0,1,1,0,0,0,0,0,1
45,41,0,0,1,36,4,0,1,2,0,1,1,2,0,0,1,0,0,1,1,0,0,1,0
0,45,0,0,4,20,1,1,1,0,1,0,0,2,4,1,1,1,2,1,1,0,0,1,0
40,45,0,1,4,30,3,0,1,1,0,1,1,0,0,2,0,0,0,1,1,0,0,0,0
7,45,0,1,1,37,2,0,1,2,2,1,0,0,0,0,1,1,1,1,2,0,0,1,1
45,28,1,0,2,34,0,1,1,1,0,1,1,0,0,0,1,1,0,1,1,0,0,1,0
7,45,0,1,3,26,2,0,0,1,2,1,1,1,3,2,1,0,0,1,0,1,1,0,1
45,37,0,0,4,29,5,0,0,0,1,1,0,0,0,0,1,0,1,1,0,0,0,1,0
45,28,0,0,4,33,2,0,1,0,0,0,0,0,0,2,1,1,0,1,0,0,0,1,0
45,19,0,0,4,29,5,0,0,0,1,0,0,0,0,1,1,2,2,1,1,1,0,1,0
45,6,0,1,3,39,3,0,1,2,2,2,2,2,3,0,1,1,2,1,1,0,0,1,1
45,37,0,0,3,36,5,0,0,2,1,1,1,0,1,2,0,1,0,1,1,1,1,1,1
39,45,0,0,4,25,4,0,1,1,0,1,1,2,1,0,1,1,2,1,2,1,0,1,0
44,45,2,1,1,31,2,0,1,1,2,1,1,1,1,2,2,1,0,0,0,1,1,1,1
42,45,0,1,3,30,2,0,1,0,0,1,1,1,3,2,2,0,0,1,1,1,0,1,1
45,20,0,0,4,44,5,1,0,0,0,0,0,2,0,2,1,1,0,1,1,1,0,1,0
45,35,0,0,3,31,5,0,1,2,1,2,2,2,0,2,0,1,1,1,0,2,0,1,0
45,12,0,0,0,42,1,0,0,2,0,2,1,0,3,0,1,2,2,0,2,1,0,1,0
45,41,0,1,3,33,2,1,1,1,2,1,1,0,3,2,0,1,1,1,0,1,0,0,0
42,45,0,1,1,35,5,0,1,0,1,1,1,2,4,1,1,1,1,1,0,1,0,1,1
45,2,0,1,3,27,5,0,1,0,0,1,0,0,0,1,1,0,1,1,0,0,0,1,1
45,2,1,1,1,30,2,0,1,2,1,2,2,0,0,1,1,1,2,0,0,2,0,1,1
11,45,0,1,3,33,4,1,1,2,2,1,0,2,4,1,1,1,2,0,0,2,0,1,1
19,45,1,1,3,27,0,1,1,1,0,1,1,1,3,2,0,0,0,1,0,1,0,0,0
44,45,0,1,2,32,4,0,0,1,0,1,1,1,0,2,0,1,0,1,1,1,0,1,1
15,45,0,0,4,37,1,0,1,1,0,1,1,0,2,0,0,1,1,1,0,1,0,1,0
17,45,0,0,0,28,2,0,1,1,0,1,1,0,2,1,1,1,1,2,2,0,0,1,0
45,18,0,0,2,45,2,0,0,0,0,0,0,0,0,1,1,1,1,1,0,0,0,0,1
45,2,0,1,2,35,4,1,1,2,2,0,0,0,0,1,1,2,2,0,0,2,0,0,1
28,45,0,0,2,34,4,0,1,0,1,0,0,0,2,1,1,1,1,1,0,2,0,1,0
45,16,0,1,2,35,1,1,0,2,2,1,1,2,3,2,1,1,0,1,0,1,0,1,1
44,45,0,0,0,24,4,0,1,1,0,1,1,2,0,0,0,0,1,1,1,0,0,1,0
45,37,1,0,0,33,0,1,1,1,2,0,0,2,2,0,1,0,1,1,1,2,0,0,0
45,34,0,0,2,25,4,1,1,1,2,1,0,0,2,0,1,0,1,1,0,0,0,1,1
45,28,0,1,3,38,1,1,1,2,2,1,2,0,0,1,1,2,1,0,0,2,0,1,0
45,37,0,0,2,41,3,1,1,2,2,1,0,0,0,0,0,1,0,0,0,1,0,1,1
45,16,0,1,3,46,1,1,1,0,1,0,0,0,0,1,1,1,2,2,2,0,0,1,1
44,45,0,0,3,21,2,0,1,1,2,2,1,2,2,0,1,1,1,1,1,2,0,2,1
45,36,0,1,3,35,2,1,1,2,2,1,0,0,0,0,0,1,0,1,0,1,0,1,1
17,45,0,0,2,34,2,0,1,1,0,1,1,2,2,0,0,0,1,0,0,2,0,1,0
45,36,0,0,4,40,5,0,0,2,2,2,2,2,0,0,1,0,2,1,1,0,0,1,0
45,18,1,0,3,40,0,1,1,0,1,1,1,0,2,2,0,1,0,1,1,0,0,1,0
44,45,0,1,1,34,2,1,0,0,1,1,1,0,2,0,1,1,2,0,2,2,0,1,0
45,3,0,0,4,35,2,1,1,0,1,1,0,0,0,1,1,1,2,0,0,0,0,1,0
28,45,0,0,4,30,2,0,1,0,0,0,0,2,2,1,1,1,1,1,1,2,0,1,0
7,45,0,0,0,30,2,0,0,1,0,1,1,0,0,1,1,1,2,1,1,1,0,1,0
45,10,0,1,3,23,2,0,0,1,0,1,1,0,1,2,1,0,1,1,0,1,0,0,0
45,19,0,0,0,36,1,0,0,0,0,1,0,0,0,2,0,0,0,1,0,0,1,1,0
7,45,0,1,1,34,2,0,0,0,0,2,0,0,2,1,1,1,1,1,1,2,0,0,1
17,45,0,0,4,26,3,0,1,0,0,0,0,0,0,1,1,1,1,0,0,0,0,1,0
45,41,0,1,3,40,5,0,1,2,2,2,2,2,0,2,2,0,0,1,0,1,1,1,1
45,31,0,0,4,35,4,1,1,1,0,1,1,0,0,1,1,0,0,1,1,0,0,1,0
45,20,0,1,2,45,4,1,1,2,2,1,2,2,4,1,1,2,2,2,2,2,0,1,1
45,11,0,0,0,33,5,0,1,2,2,2,2,2,2,1,1,1,2,1,1,2,0,1,0
44,45,1,1,3,26,0,1,1,1,0,1,1,0,4,0,1,1,2,1,0,2,0,0,1
45,41,0,1,3,35,4,1,1,0,0,1,1,0,2,1,1,2,1,1,1,2,0,0,0
45,8,0,0,4,36,5,0,1,0,1,0,0,0,0,0,1,1,1,1,1,0,0,1,0
45,11,0,1,2,40,4,0,1,0,1,1,0,0,0,1,1,2,2,1,0,0,0,1,1
44,45,0,1,4,41,4,0,1,1,0,1,1,0,1,0,0,1,1,0,0,0,0,1,0
44,45,1,1,4,27,0,1,1,1,2,1,1,2,2,1,1,2,2,1,0,2,0,0,0
45,2,0,0,3,32,5,0,1,2,2,2,2,2,1,0,0,1,1,1,1,0,1,1,1
45,28,0,1,3,35,2,0,1,2,2,1,1,2,1,2,1,0,1,1,0,0,0,1,1
28,45,0,0,0,26,2,0,1,1,0,1,1,0,0,0,0,0,0,1,1,0,0,1,0
7,45,0,0,3,19,2,0,1,0,1,1,1,0,1,1,1,1,2,1,2,0,0,1,1
21,45,0,0,2,23,2,0,1,1,2,2,1,0,0,1,1,2,1,1,0,0,0,0,1
45,11,0,0,4,23,5,0,0,2,0,1,1,0,0,1,1,2,0,1,2,0,0,1,0
45,38,0,1,3,32,2,1,1,1,0,1,1,0,1,2,1,1,0,1,2,1,0,1,1
45,10,0,1,3,33,5,0,1,2,2,1,1,0,4,0,1,2,1,1,2,1,0,1,1
7,45,0,0,3,25,2,0,1,2,2,1,0,0,0,0,1,1,2,1,0,0,0,0,1
45,2,0,1,4,36,4,0,1,0,0,1,0,0,0,1,1,0,1,1,0,2,0,0,0
45,45,0,0,0,56,5,0,1,2,1,0,0,0,0,1,0,2,1,1,0,0,0,1,1
45,15,0,0,0,40,2,0,0,0,1,1,1,0,2,0,0,2,2,0,0,0,0,0,0
44,45,0,0,3,54,5,1,0,1,2,2,2,2,4,1,1,2,2,0,0,1,0,1,1
45,28,0,0,3,23,5,0,1,2,2,2,2,0,0,1,1,1,1,1,1,2,0,0,1
45,2,0,1,1,22,5,0,1,0,1,1,0,0,0,2,2,0,0,1,1,0,0,0,1
45,37,0,1,3,38,2,0,1,2,2,1,2,2,2,1,1,1,2,1,1,2,0,0,1
7,45,0,1,3,19,0,0,1,1,0,1,1,0,0,0,0,1,0,1,0,0,0,1,1
45,3,0,0,0,29,4,0,1,2,2,1,2,2,0,0,1,1,1,1,1,1,0,1,0
45,36,0,0,4,26,2,0,0,1,0,1,1,2,2,1,1,1,2,0,2,0,0,1,0
0,45,0,1,1,22,1,0,0,2,2,2,2,2,0,0,0,0,2,1,0,0,1,1,1
0,45,0,1,1,23,0,1,1,1,1,1,1,0,4,1,1,1,2,1,0,2,0,0,1
45,2,0,0,0,33,5,0,1,0,1,2,0,0,0,0,1,1,1,1,0,2,0,1,0
29,45,0,0,3,42,5,0,0,1,2,0,1,2,1,2,0,1,1,1,2,1,1,1,1
45,42,0,0,3,40,0,0,1,2,2,1,1,0,0,0,1,1,0,1,0,2,0,0,1
15,45,0,0,4,24,2,0,1,1,0,2,1,0,0,0,1,2,1,1,1,0,0,1,0
45,2,0,0,4,25,5,0,1,0,1,0,0,0,0,0,1,0,0,1,0,0,0,1,0
45,10,0,1,1,32,2,1,1,2,2,1,1,2,1,1,1,1,2,1,1,2,0,1,1
45,37,0,1,2,26,5,1,1,2,2,2,0,0,2,0,1,1,0,1,1,0,0,0,1
44,45,0,0,4,27,4,0,1,1,0,1,1,0,0,1,1,1,1,1,1,0,0,1,0
45,2,0,0,0,35,5,0,1,0,0,1,0,0,0,2,0,1,1,1,1,0,0,1,0
45,28,0,0,0,26,2,0,1,0,1,1,1,0,0,2,2,1,0,1,1,1,0,1,0
45,36,0,0,0,32,0,1,1,0,1,1,1,0,0,0,1,1,2,1,1,0,0,1,0
45,30,0,0,3,26,1,1,1,0,1,0,0,0,1,1,1,1,1,1,1,2,0,0,1
28,45,0,0,3,30,3,0,1,0,0,1,1,0,0,0,1,2,2,0,2,0,0,1,0
44,45,0,1,3,37,2,0,0,1,0,1,1,0,0,2,0,1,2,1,0,0,0,1,0
45,37,0,0,4,31,2,0,1,0,1,1,1,0,0,1,1,1,2,0,0,1,0,1,0
7,45,0,0,3,24,2,0,1,2,2,1,1,2,0,0,1,0,0,1,0,0,1,1,0
44,45,0,0,0,27,2,0,1,0,1,1,0,0,2,1,1,1,0,2,2,0,0,1,0
45,36,0,1,1,33,4,1,1,1,2,1,1,0,3,2,1,1,2,1,0,1,0,1,1
45,28,0,0,0,29,3,0,0,2,0,1,0,0,1,0,1,1,0,1,1,0,0,0,1
45,28,0,1,3,25,3,0,1,2,0,1,1,0,0,2,2,1,1,1,1,0,0,0,1
45,5,0,0,4,40,2,0,1,2,2,2,2,2,2,1,1,1,2,1,1,2,0,0,0
45,37,0,0,3,34,0,0,1,1,0,1,1,0,0,2,1,0,0,1,2,0,0,1,1
45,36,0,0,4,39,5,1,1,0,1,0,0,0,0,1,1,1,2,1,1,0,0,1,0
45,37,0,0,1,42,4,0,1,0,0,1,0,0,0,2,0,0,0,1,0,0,0,1,1
45,10,0,1,3,30,2,0,1,2,2,2,0,2,4,1,1,1,0,1,1,2,0,0,1
45,11,0,0,0,48,2,0,0,2,2,2,2,2,0,0,1,1,2,1,0,0,0,1,0
7,45,0,0,3,27,4,1,1,1,2,1,1,1,3,2,2,1,1,1,0,1,0,1,0
45,36,0,0,4,34,4,0,1,1,0,1,1,0,0,1,1,2,2,0,2,0,0,1,0
28,45,0,0,0,29,0,1,1,1,0,1,1,2,2,1,1,2,2,1,0,2,0,1,0
14,45,0,0,4,18,3,1,0,0,0,1,0,0,4,2,1,0,0,1,0,0,0,1,0
45,29,0,0,3,34,2,1,1,0,1,1,0,0,1,1,1,1,0,1,1,1,0,1,1
45,6,0,1,3,34,0,0,1,1,0,1,1,0,1,0,1,1,1,1,0,1,1,1,1
45,10,0,1,3,25,2,0,0,0,0,1,0,0,1,0,1,1,1,1,0,1,0,1,1
44,45,0,0,0,32,4,0,1,0,0,1,1,0,0,1,1,2,2,2,2,2,0,1,0
45,2,0,0,3,27,1,0,1,0,1,2,0,0,2,2,1,1,0,1,0,1,0,0,1
45,2,0,0,3,34,1,1,1,2,2,1,0,0,2,0,1,1,2,1,1,2,0,0,1
45,1,0,0,4,38,2,0,1,2,2,1,1,2,0,0,0,0,0,1,1,1,0,0,1
45,16,1,1,3,46,0,1,1,2,1,2,0,2,4,1,1,2,2,1,2,2,1,1,0
45,45,1,1,3,44,0,1,1,1,2,1,1,1,4,2,2,1,0,1,1,2,0,1,1
44,45,0,0,3,39,3,0,0,0,0,1,1,0,0,0,0,1,1,1,1,0,0,1,1
45,29,0,0,2,46,3,1,1,2,1,2,2,2,0,1,1,1,2,1,0,2,0,1,1
45,1,0,1,1,39,2,0,1,2,2,1,1,2,0,2,1,1,0,1,1,1,0,1,1
45,25,0,0,4,30,5,0,1,2,2,2,2,2,4,1,1,1,2,1,1,2,0,1,0
45,28,0,0,0,31,3,0,1,2,2,2,2,2,2,1,1,1,2,1,1,2,0,1,0
45,2,0,1,0,32,2,0,1,0,1,1,1,0,4,1,1,1,1,1,0,1,0,1,0
45,38,0,0,4,33,1,1,1,0,1,0,0,0,0,1,1,1,2,0,0,0,0,1,0
7,45,0,1,3,35,4,1,1,1,2,1,1,0,0,0,1,0,1,1,1,0,0,1,0
45,29,0,1,2,29,4,0,1,0,0,1,1,0,0,2,1,0,0,1,1,0,0,0,1
45,41,0,1,3,28,5,0,1,0,0,0,0,0,2,0,1,1,0,1,0,1,0,1,1
45,15,0,1,2,56,4,0,1,2,2,1,1,0,0,2,0,1,1,1,1,0,0,1,1
23,45,0,0,0,33,4,0,0,1,0,1,1,0,0,0,0,1,1,1,1,1,0,1,0
45,37,0,0,1,32,2,1,1,2,1,1,0,0,3,2,0,1,0,1,1,0,0,1,1
45,32,0,1,3,38,5,0,0,2,2,2,2,2,4,0,1,2,2,1,1,1,1,0,1
28,45,0,0,4,28,4,0,1,1,1,1,1,0,2,0,0,1,1,1,1,0,0,1,0
45,2,1,1,3,29,0,1,1,2,2,1,1,0,3,2,1,1,0,1,0,1,0,2,1
44,45,0,0,0,31,1,0,1,2,0,1,2,0,0,0,2,1,0,1,1,2,0,1,0
45,28,0,1,4,38,4,0,1,0,0,1,1,0,1,1,1,1,2,1,1,0,1,1,0
45,24,0,1,3,34,2,1,1,2,2,1,1,0,0,0,1,1,1,1,2,0,1,1,1
44,45,0,1,3,44,3,0,0,0,0,1,1,0,1,0,1,1,2,1,0,1,1,1,1
45,41,0,1,3,25,2,1,1,0,0,1,1,0,0,0,1,1,2,1,1,2,0,0,1
45,2,0,1,1,30,4,0,1,0,0,1,0,0,2,0,1,1,2,1,1,0,0,1,0
45,36,0,1,3,41,5,0,1,2,1,2,2,0,0,0,1,1,1,1,1,1,0,1,1
45,28,0,1,1,23,5,0,1,2,1,0,1,0,0,0,1,1,1,1,1,2,1,0,1
45,13,0,0,1,21,4,0,0,0,0,1,0,0,0,0,1,0,0,1,0,0,0,1,1
45,22,0,0,3,29,2,0,1,2,2,1,1,0,0,2,1,1,1,1,0,0,0,1,1
45,28,0,0,4,29,4,1,1,2,1,1,2,0,0,0,1,1,2,0,2,0,0,1,0
45,2,0,1,3,24,5,0,1,2,2,1,2,2,0,0,1,1,0,1,0,0,0,0,1
44,45,1,1,3,33,0,1,1,1,2,1,1,1,3,2,0,1,1,1,0,1,1,1,1
7,45,2,0,0,39,0,1,1,1,2,1,1,2,0,1,1,0,0,1,1,1,0,1,0
45,2,0,0,2,32,0,1,1,1,2,1,1,0,3,0,1,2,1,1,2,0,0,1,0
45,36,0,0,3,27,1,0,1,2,1,2,2,0,0,0,1,1,2,1,0,0,0,1,0
45,29,0,1,1,33,5,1,1,2,2,1,1,0,2,2,1,0,0,1,1,1,0,1,1
45,18,0,1,3,28,2,1,1,2,1,1,0,0,0,2,1,1,1,1,1,0,1,1,1
45,2,0,0,0,36,5,0,1,2,2,2,2,2,4,1,1,1,2,1,1,2,0,1,0
45,11,0,1,1,35,5,0,0,2,2,1,2,0,2,2,1,0,1,1,2,0,0,1,1
45,2,0,0,1,42,5,0,1,2,2,2,2,2,2,0,0,2,2,0,0,0,0,1,1
45,2,0,0,1,46,1,1,0,2,2,1,1,2,0,0,1,1,1,1,0,1,0,0,1
45,41,0,0,3,34,1,1,1,1,0,1,1,0,2,2,2,1,1,1,0,0,0,1,1
45,29,0,0,3,35,1,0,1,1,2,1,1,0,0,2,0,0,0,1,0,1,0,0,1
45,7,0,0,0,30,2,1,1,2,2,0,0,2,4,1,1,1,2,0,0,2,0,1,0
28,45,1,1,2,34,0,1,1,2,2,2,2,2,4,1,1,2,1,1,0,2,0,1,1
45,41,0,0,3,25,4,0,1,1,0,1,1,1,2,0,1,1,0,1,1,2,0,0,0
45,37,0,0,3,38,0,0,1,1,2,1,1,0,0,1,0,1,0,1,1,0,1,0,1
44,45,0,1,2,43,2,0,1,1,0,1,1,0,3,2,2,1,0,1,1,1,1,1,1
33,45,0,0,0,34,5,1,1,0,1,1,1,0,0,0,1,1,1,1,2,0,0,1,0
45,2,0,0,2,37,5,0,1,2,2,0,2,0,2,1,1,1,2,1,1,2,0,0,1
20,45,0,0,4,23,4,0,1,1,0,1,1,0,0,1,1,1,2,0,0,1,0,1,0
44,45,0,0,1,30,2,0,1,1,0,1,1,2,2,1,1,1,2,1,0,2,0,1,1
45,41,0,1,3,26,5,0,1,2,2,1,1,0,0,1,1,1,2,1,0,1,1,0,1
45,20,0,1,4,33,3,0,1,2,0,0,0,0,4,1,1,2,2,2,2,2,0,1,0
45,2,0,0,3,26,1,0,1,2,2,1,1,0,1,2,0,1,1,1,1,1,1,0,1
45,37,0,0,0,48,4,0,1,0,0,1,0,0,0,0,1,0,0,1,0,0,0,1,0
45,2,0,0,3,28,2,0,1,2,2,2,2,2,2,1,1,1,1,1,0,2,0,1,1
17,45,0,0,3,33,4,0,1,2,2,1,1,2,4,2,2,1,1,1,0,1,0,1,1
44,45,0,0,3,39,1,0,1,1,0,1,1,0,4,1,1,0,1,1,2,2,0,1,1
45,42,0,0,3,33,4,1,1,1,2,1,1,2,1,1,1,2,2,2,2,0,0,1,1
45,15,0,0,4,43,5,0,1,2,0,2,2,0,0,1,1,1,2,1,0,0,0,1,0
42,45,1,0,0,30,0,0,1,1,0,1,1,1,2,1,1,2,2,1,1,2,0,1,0
45,28,0,0,2,28,5,0,0,2,2,1,0,0,0,0,1,0,0,1,1,0,0,0,1
45,37,0,0,3,40,2,0,1,1,2,1,1,2,3,1,1,2,2,2,2,1,0,1,1
44,45,0,0,4,32,4,0,1,1,0,1,1,0,0,0,0,0,0,1,0,0,0,1,0
45,31,0,1,0,29,1,0,1,2,2,2,2,0,0,1,1,1,2,1,0,2,0,1,0
29,45,0,1,2,27,1,1,1,1,0,1,1,0,2,0,0,1,1,1,2,0,0,0,1
43,45,1,0,0,40,4,0,1,1,0,1,1,2,4,1,1,1,2,0,0,2,0,1,0
30,45,0,0,4,25,4,0,1,1,0,1,1,0,0,0,1,2,2,1,2,0,0,1,0
45,5,0,1,0,41,3,1,0,0,0,1,1,0,0,0,1,0,0,1,1,0,0,1,0
45,31,0,0,2,32,1,0,1,2,2,1,2,2,0,2,1,0,2,1,1,0,0,1,1
44,45,0,0,2,27,5,1,0,0,1,1,2,0,0,1,1,1,2,1,1,0,0,1,0
45,36,0,0,4,51,1,0,0,0,1,1,0,0,1,1,1,1,2,1,1,0,0,1,0
45,7,0,0,0,27,5,1,1,2,2,0,0,2,2,1,1,1,2,0,0,2,0,1,0
45,2,0,0,2,27,5,0,1,2,0,2,2,2,0,1,1,1,2,1,0,2,0,1,1
45,28,0,1,2,27,2,0,1,2,2,1,1,2,0,0,1,0,0,1,1,0,0,2,1
17,45,0,0,1,30,2,0,1,1,0,0,1,0,2,0,1,1,1,0,2,0,0,1,0
45,34,0,1,3,30,2,0,1,2,2,2,0,0,4,1,1,2,2,1,2,2,0,0,1
17,45,0,1,3,23,4,0,1,0,1,1,1,0,2,0,1,0,0,1,1,0,0,1,1
45,13,0,0,0,24,2,0,0,0,1,1,1,0,0,0,2,1,0,1,0,1,0,1,0
45,45,0,0,2,25,2,1,1,0,0,1,1,0,2,2,1,1,1,1,2,0,1,1,0
17,45,0,0,2,35,1,0,0,0,0,2,0,0,4,1,1,1,2,1,1,2,0,1,1
44,45,0,0,4,24,0,0,1,1,0,1,1,0,0,2,1,1,1,1,2,1,0,1,0
37,45,0,0,3,30,2,0,1,0,1,1,1,0,2,0,1,1,0,1,2,1,1,1,0
45,36,2,0,3,32,4,0,1,2,2,1,0,0,0,0,1,1,2,1,1,1,0,1,1
44,45,0,0,3,24,1,0,1,1,0,1,1,0,0,0,1,0,1,1,0,0,0,0,1
37,45,0,0,0,51,5,1,1,0,0,1,0,0,0,2,1,0,0,1,1,1,0,1,0
45,37,0,1,0,43,1,0,0,2,2,1,0,0,2,0,1,1,1,1,0,1,0,1,0
45,30,0,0,0,27,1,0,0,0,1,0,0,0,0,1,1,1,2,1,1,2,0,0,0
17,45,0,0,2,21,4,1,1,0,0,1,1,0,4,0,0,1,1,1,0,1,0,1,0
45,38,0,1,1,25,0,0,1,1,2,1,1,2,4,0,1,2,2,1,0,1,0,1,1
45,36,1,1,4,35,4,1,1,1,0,2,2,0,4,1,1,2,2,1,0,2,0,1,0
45,32,0,1,2,29,0,1,1,2,2,2,2,2,2,1,1,2,2,0,0,2,0,1,1
17,45,0,0,4,36,2,0,1,2,2,1,1,2,4,1,1,1,2,0,0,2,0,1,0
45,32,0,0,2,23,1,0,1,2,1,0,0,0,0,1,1,1,1,1,1,2,0,1,0
45,36,0,0,4,24,4,0,1,0,1,0,1,2,2,1,1,1,2,1,0,0,0,1,0
4,45,0,1,2,25,2,1,1,0,1,0,0,0,0,0,2,0,0,1,1,0,1,1,0
45,2,0,1,0,26,5,0,1,2,2,1,2,2,0,0,1,0,0,1,1,0,0,0,1
45,32,0,1,3,38,1,1,0,2,2,1,2,2,4,1,1,2,2,2,2,0,0,1,1
39,45,0,1,1,25,4,0,0,0,0,1,1,2,0,1,1,1,2,1,0,1,1,1,1
45,28,0,1,2,29,3,1,0,2,2,2,0,2,0,0,1,1,0,0,2,0,0,0,1
45,2,0,0,2,58,5,0,1,2,2,2,2,2,2,0,1,1,2,1,2,2,0,1,1
45,31,0,1,3,35,2,1,1,0,1,1,1,0,2,1,1,1,2,1,0,1,0,1,1
15,45,0,0,0,26,4,0,1,1,2,1,1,0,0,0,1,2,2,0,0,1,0,1,0
44,45,0,0,0,34,3,0,1,0,0,1,0,0,4,0,1,2,2,1,1,2,0,1,0
45,19,0,0,0,29,2,0,1,0,0,1,0,0,0,1,1,2,2,0,0,1,0,1,0
45,2,0,0,4,42,4,0,1,1,2,1,1,0,3,0,1,2,2,1,0,1,0,1,0
44,45,0,1,3,23,4,0,1,1,2,1,2,2,4,1,1,2,2,0,0,2,0,0,1
45,2,0,1,3,30,2,1,1,2,0,1,1,0,0,0,1,1,0,1,0,0,0,1,1
21,45,1,0,0,37,4,0,1,1,0,1,1,0,0,2,0,0,0,1,0,0,0,1,0
45,42,0,1,2,24,4,1,1,0,0,1,1,0,4,1,1,2,2,0,2,2,0,1,1
45,45,0,1,2,41,3,1,1,2,2,2,2,2,4,0,0,1,1,1,1,2,0,0,1
45,41,0,1,3,39,3,0,1,2,2,1,0,2,4,1,1,1,2,1,1,2,0,1,1
44,45,0,1,3,35,0,0,1,1,2,1,1,2,4,2,2,1,1,1,0,2,1,1,1
45,25,0,1,3,28,2,0,1,2,2,1,1,0,0,0,1,1,0,1,0,1,0,1,1
45,41,0,0,0,20,2,0,1,0,1,0,0,0,0,1,1,1,2,0,0,2,0,1,0
45,6,1,0,4,65,4,1,0,1,0,1,1,0,4,0,1,1,0,1,1,2,0,1,0
44,45,0,0,3,29,4,1,1,1,0,1,1,0,4,1,1,2,2,1,2,2,0,1,1
45,20,0,1,2,35,4,0,1,2,1,1,1,2,2,1,1,1,2,1,1,0,0,1,0
17,45,1,0,3,34,0,1,1,1,1,1,1,2,1,0,0,1,1,1,1,0,0,1,1
45,28,0,0,4,29,1,0,0,0,1,1,0,0,0,0,1,0,0,1,0,0,0,1,0
45,36,0,1,3,43,2,0,0,2,1,1,2,0,2,2,1,0,0,1,1,1,0,1,1
45,29,0,0,3,43,4,0,1,1,2,1,1,0,2,1,1,2,2,1,0,0,0,1,1
45,37,0,1,1,22,4,0,1,1,2,1,1,2,3,0,1,0,0,1,0,0,0,1,1
11,45,1,0,3,43,0,1,1,1,0,1,1,2,3,2,1,2,0,1,0,1,1,1,1
28,45,0,1,1,29,0,0,1,0,1,0,2,0,3,1,0,2,2,0,1,2,0,1,1
44,45,0,0,3,34,5,0,0,1,2,1,2,2,1,0,0,1,2,1,0,1,1,0,1
7,45,0,1,3,26,1,0,1,2,1,1,1,2,0,0,1,1,0,1,0,0,0,0,1
45,28,0,0,3,32,2,0,1,2,2,1,1,2,0,0,0,1,0,1,1,1,0,0,1
7,45,0,0,3,23,4,0,1,2,0,1,1,0,2,0,0,1,1,1,1,0,0,1,1
45,44,0,0,3,50,0,1,1,0,0,1,0,0,0,2,0,1,1,1,0,0,0,1,0
34,45,0,0,0,27,4,0,1,1,0,1,1,2,0,2,1,0,0,1,0,0,0,1,0
44,45,0,1,3,30,5,0,1,2,2,1,0,2,0,0,1,1,2,1,2,2,0,1,1
45,28,0,1,3,29,1,0,1,2,2,1,1,1,1,0,1,1,1,1,1,1,0,1,1
0,45,0,1,3,37,2,0,1,1,2,1,1,2,4,1,1,1,2,1,0,2,1,1,1
45,2,1,0,3,29,5,0,1,2,1,0,1,0,4,0,0,1,1,1,1,0,0,0,0
17,45,1,0,3,32,0,1,1,1,2,1,1,2,2,1,1,1,1,0,0,1,0,1,0
45,41,0,0,4,43,3,1,1,0,1,0,0,0,0,1,1,2,2,1,1,2,0,1,0
45,31,0,0,2,35,1,0,1,2,1,0,2,0,0,1,1,1,2,1,1,0,0,1,1
0,45,0,0,1,27,1,1,1,1,0,1,1,0,0,0,1,1,0,1,0,1,1,1,1
45,22,0,0,4,46,1,1,1,1,2,1,1,0,0,2,1,0,0,1,1,1,0,0,0
45,38,0,0,3,28,4,1,1,1,2,1,1,0,2,2,0,1,0,1,1,0,0,1,0
21,45,1,1,3,23,0,0,1,1,0,1,1,0,3,2,1,0,0,1,0,1,0,1,0
45,2,0,0,0,32,5,0,1,0,1,0,0,0,0,0,0,1,1,1,1,0,0,1,0
45,29,0,1,3,31,4,0,1,1,0,1,1,0,2,0,1,2,2,1,0,0,0,1,1
45,2,0,0,3,57,5,0,1,2,1,2,2,0,0,0,0,0,0,1,0,0,0,1,1
3,45,0,0,4,32,4,0,1,1,2,1,1,0,3,2,0,0,0,1,1,1,0,1,0
45,2,0,0,2,26,5,0,1,2,1,0,0,0,0,1,1,1,1,1,0,1,0,1,1
7,45,0,0,0,34,4,0,1,0,1,0,0,0,2,1,1,1,2,1,1,0,0,1,0
45,8,0,0,1,39,5,0,1,2,1,1,1,0,2,1,1,2,2,1,1,0,0,1,1
45,29,0,1,3,28,2,1,1,0,0,1,1,0,2,2,1,1,1,1,0,1,0,0,1
45,37,2,0,0,31,1,1,1,2,0,0,0,0,0,1,1,1,2,2,2,0,0,1,0
45,31,0,0,0,25,5,0,1,2,2,2,2,0,0,0,1,1,2,0,1,2,0,0,0
45,2,0,1,3,36,5,0,1,2,0,1,2,0,1,2,1,1,2,1,2,1,0,1,1
45,2,0,0,3,27,1,0,1,0,1,1,1,2,3,0,1,1,0,1,0,1,0,1,1
45,11,1,0,4,29,0,1,1,1,2,1,1,2,4,1,1,2,2,0,0,2,0,1,0
45,15,0,0,4,33,1,1,1,2,0,0,1,0,0,1,1,1,2,1,1,2,0,0,0
45,32,0,1,2,55,5,0,1,2,2,2,2,2,4,1,1,2,2,1,1,2,0,1,1
15,45,0,0,4,26,4,1,1,1,2,1,1,0,2,1,1,1,0,1,0,2,0,1,0
45,18,0,1,2,26,1,0,1,2,0,1,1,0,0,0,0,0,0,1,0,1,0,0,1
45,2,1,1,1,30,0,1,1,1,2,1,1,2,4,1,1,2,2,1,1,2,0,1,1
17,45,0,1,1,25,2,1,1,1,0,1,1,2,2,1,1,2,2,1,2,1,0,1,1
45,2,0,0,4,29,5,0,1,0,1,1,0,0,0,0,1,0,0,1,0,0,0,1,0
44,45,0,1,3,26,4,0,1,1,0,1,1,0,0,0,0,0,0,1,0,1,0,1,0
17,45,0,0,0,28,4,1,1,0,0,0,0,0,4,1,1,1,1,0,2,2,0,1,0
7,45,0,1,1,33,4,1,1,0,0,1,1,1,1,2,1,0,0,1,0,0,0,1,1
45,19,0,1,3,40,2,0,1,2,2,1,2,2,2,1,1,2,2,1,0,2,1,0,1
7,45,1,0,4,31,4,0,1,2,2,1,0,2,4,1,1,1,1,1,1,2,0,1,0
45,6,0,0,3,30,1,1,1,2,2,1,2,2,0,1,1,2,2,0,1,2,0,1,1
28,45,0,1,4,29,4,0,1,1,0,1,1,0,4,1,1,1,2,1,0,2,0,1,0
45,13,0,0,2,36,5,1,1,2,0,2,0,0,2,0,1,0,0,1,1,0,0,1,0
45,2,0,1,0,54,5,0,1,0,0,2,2,0,0,1,1,0,2,1,1,0,0,1,1
44,45,0,1,3,28,5,0,1,0,0,1,1,0,0,0,0,1,0,1,0,0,0,1,1
44,45,0,0,3,44,5,0,0,1,0,1,2,0,0,0,1,1,1,1,1,1,0,1,1
44,45,0,0,4,32,2,0,1,1,0,1,1,0,0,0,1,0,0,1,1,0,1,1,0
45,28,0,0,3,27,3,0,1,0,1,0,2,0,0,1,1,1,2,1,1,2,0,0,0
44,45,1,0,3,26,0,0,1,1,2,1,1,0,0,0,1,1,1,1,0,2,0,1,1
20,45,1,0,4,22,0,1,1,0,0,0,0,0,4,0,0,1,1,0,0,2,1,1,0
45,39,0,0,3,24,4,0,1,0,0,0,0,0,0,1,1,2,2,0,0,0,0,1,0
44,45,0,1,3,25,5,0,0,2,2,2,2,2,4,1,1,2,2,2,2,2,0,1,1
45,4,2,1,0,36,3,0,1,0,1,1,0,0,0,1,1,2,2,1,1,0,0,1,0
45,2,0,0,0,57,2,0,1,2,2,1,2,2,1,2,0,0,0,1,0,0,1,1,0
45,0,0,0,3,41,2,1,1,2,2,0,1,0,4,1,1,2,2,2,2,2,0,1,1
36,45,0,0,4,18,2,1,1,2,2,1,1,2,2,1,1,2,2,2,2,0,0,2,0
28,45,0,0,4,37,1,1,0,0,0,0,0,0,2,0,1,2,2,1,1,0,0,1,0
45,41,0,1,3,40,1,0,0,2,2,2,2,2,0,0,1,1,2,1,1,0,1,0,1
21,45,0,1,4,24,0,0,1,1,0,1,1,0,0,0,0,0,0,1,1,0,0,1,0
21,45,1,0,0,26,0,1,1,1,0,1,1,0,1,0,1,1,2,0,0,2,0,1,0
44,45,0,0,3,30,2,0,1,1,0,1,1,0,1,2,0,1,0,1,0,1,0,1,1
44,45,0,1,2,39,3,1,1,0,1,1,1,0,1,2,2,0,0,1,1,1,1,0,0
44,45,0,0,4,19,0,0,1,1,2,1,1,1,1,2,1,0,0,1,0,1,0,1,0
44,45,0,0,0,33,1,0,1,0,1,1,0,0,4,0,1,1,1,1,0,1,0,0,1
45,37,0,0,3,24,2,1,1,0,0,1,0,0,2,1,1,1,2,1,0,1,0,1,0
17,45,0,0,0,25,5,0,0,0,1,0,2,0,0,1,1,2,2,1,2,0,0,1,0
3,45,0,0,4,31,2,0,1,0,1,1,1,2,4,0,1,1,1,1,1,0,0,0,0
44,45,0,0,0,39,2,0,0,1,0,1,1,0,0,2,0,0,0,1,1,0,0,1,0
44,45,0,1,2,32,4,0,0,1,0,1,1,1,0,2,0,1,0,1,1,1,0,1,1
45,9,0,1,3,55,0,1,1,1,2,1,0,0,0,2,0,0,0,1,1,1,1,1,1
45,28,0,0,3,22,3,0,1,2,2,1,0,2,0,2,1,0,0,1,2,1,0,1,1
45,15,0,0,3,23,2,0,1,2,2,1,0,0,0,0,1,1,0,1,0,0,0,0,1
44,45,0,0,4,24,1,0,1,0,1,1,1,0,2,0,0,1,2,1,0,0,0,1,0
21,45,0,0,3,28,2,0,1,1,2,1,1,2,0,2,0,0,0,1,1,1,1,1,0
7,45,1,1,2,37,0,1,1,1,2,1,1,2,2,2,0,1,1,0,0,0,1,0,1
45,11,0,1,0,72,3,1,0,2,1,0,2,0,2,0,0,1,2,1,1,0,1,0,1
45,15,1,1,1,43,4,1,1,2,2,1,1,2,4,1,1,2,2,0,0,2,0,1,1
45,41,0,0,4,25,2,0,1,0,1,0,0,0,0,0,1,1,0,1,1,0,0,1,0
45,37,0,0,4,28,5,0,1,0,0,1,0,0,0,0,1,1,0,1,0,0,0,1,0
45,6,0,1,1,31,2,0,1,1,0,1,1,1,3,2,1,0,0,1,2,1,1,0,1
45,29,0,0,3,34,4,1,1,0,0,1,1,0,3,0,1,1,2,1,0,0,0,1,0
7,45,0,1,3,30,5,0,0,0,0,1,1,1,3,2,1,1,0,1,2,1,1,1,1
45,30,0,0,4,30,5,1,1,2,0,2,2,0,0,2,0,0,0,1,1,0,0,1,0
7,45,2,0,0,23,2,0,1,0,0,0,0,0,0,1,1,2,2,0,0,2,0,1,0
7,45,0,0,3,29,0,0,1,1,0,1,1,0,0,0,1,1,1,1,1,2,0,0,1
42,45,0,0,0,39,5,0,1,2,2,2,2,2,2,1,1,1,1,1,0,2,0,1,1
44,45,0,0,3,32,2,0,0,2,2,1,1,2,4,1,1,0,2,1,1,2,0,1,1
45,2,0,0,4,24,5,0,1,0,1,0,0,0,0,0,0,1,1,1,1,2,0,1,0
45,36,0,0,2,42,5,0,0,0,0,1,0,0,0,0,1,1,0,1,0,1,0,1,0
45,1,0,1,3,31,3,0,1,2,2,1,0,2,2,0,1,1,2,1,1,2,0,0,1
44,45,0,1,2,45,1,0,0,0,0,1,1,0,0,0,1,1,0,1,0,0,0,1,0
21,45,0,0,3,32,4,0,1,1,0,1,1,0,2,1,1,1,2,1,0,0,0,1,1
44,45,0,1,3,32,1,1,1,0,1,1,1,0,1,2,0,0,0,1,1,1,1,1,1
44,45,0,0,4,38,2,0,1,1,0,1,0,2,2,1,1,1,2,0,2,2,0,1,0
45,38,0,0,1,25,4,1,1,0,0,1,1,0,2,0,1,1,0,1,0,0,0,1,1
45,2,0,1,3,28,2,0,0,2,0,1,1,0,0,0,0,1,1,1,1,2,0,1,1
45,29,0,0,3,43,5,1,1,2,1,1,2,0,0,0,1,0,0,1,1,0,0,1,0
24,45,1,1,3,49,0,1,1,1,2,2,1,0,1,2,2,0,0,1,1,1,1,1,1
45,31,0,1,1,26,4,0,1,2,2,1,1,0,1,0,1,1,2,1,1,1,0,1,1
21,45,0,1,3,38,0,0,1,1,0,1,1,1,3,2,2,0,0,1,1,1,0,1,1
45,28,0,0,4,30,1,0,1,0,1,1,1,0,0,0,1,1,2,1,0,0,0,0,0
16,45,0,0,2,20,2,0,0,1,0,1,1,0,3,2,2,1,0,1,0,1,0,1,0
45,19,0,0,2,28,1,0,0,2,2,2,0,0,4,0,1,1,1,1,1,2,0,1,1
45,7,1,0,1,30,4,1,1,1,1,1,2,0,1,1,1,2,2,1,0,2,0,1,1
45,19,0,1,4,26,4,0,1,0,1,1,1,0,0,1,1,1,2,1,1,2,0,1,0
44,45,0,1,1,34,2,1,0,2,2,1,2,1,2,2,2,1,0,1,1,0,0,0,1
45,20,0,1,0,25,4,1,1,0,0,2,0,0,0,2,1,1,2,1,1,1,0,1,1
45,36,0,1,3,36,5,1,0,0,0,0,0,0,0,2,0,0,0,1,0,0,0,1,1
45,37,0,1,2,25,2,0,0,1,0,1,1,0,0,2,0,0,0,1,0,1,0,1,1
45,32,0,1,1,25,4,1,1,2,2,1,0,2,2,1,1,2,2,0,0,0,0,1,1
45,10,0,0,0,38,5,1,1,1,2,1,1,1,3,2,2,0,0,1,1,0,0,1,0
45,41,0,1,0,30,5,0,0,0,0,1,0,0,0,2,0,0,0,1,1,1,0,1,0
45,28,0,0,3,33,5,0,1,2,2,0,0,0,0,0,0,1,1,1,1,0,0,1,1
44,45,0,1,3,31,4,0,1,1,0,1,1,0,2,0,0,0,0,1,1,2,0,1,0
45,31,0,0,4,25,2,1,1,0,1,1,0,0,0,1,1,1,2,1,1,0,0,1,0
45,45,0,0,4,31,1,1,1,0,0,0,0,0,0,0,0,1,1,0,0,0,0,1,0
44,45,0,0,2,33,0,1,1,0,0,1,1,0,0,2,0,0,0,1,0,1,0,1,0
7,45,1,1,1,33,0,1,1,1,2,1,1,1,3,2,2,0,0,1,0,1,1,0,1
45,2,0,0,0,27,4,0,1,0,0,1,0,0,0,0,1,1,2,0,0,0,0,1,0
0,45,0,1,2,26,2,0,1,1,0,0,0,0,4,1,1,2,2,0,2,2,0,1,1
28,45,0,1,3,37,4,0,1,1,0,1,1,2,2,0,1,1,2,1,0,2,0,1,0
44,45,0,0,3,24,4,0,1,1,0,1,1,0,0,0,0,1,0,1,2,1,1,1,1
45,38,0,0,2,27,2,1,1,1,2,1,1,0,1,0,1,1,2,1,1,0,1,1,1
45,41,0,0,0,38,5,0,1,2,2,2,2,2,2,0,0,1,1,1,0,1,1,2,0
44,45,0,1,2,28,1,0,1,1,1,1,1,2,1,2,2,1,1,2,1,1,1,2,1
0,45,0,1,3,27,4,0,1,1,2,1,1,1,1,2,1,1,1,1,1,1,0,0,1
17,45,0,1,2,28,0,1,1,2,0,1,1,2,4,1,1,2,2,1,1,2,0,1,1
45,28,0,0,4,31,2,1,1,0,0,1,0,0,0,2,1,0,0,1,0,0,0,1,0
44,45,0,1,3,31,5,0,1,0,0,1,1,0,0,2,0,0,0,1,2,2,0,2,1
44,45,0,0,0,26,4,0,1,1,0,1,1,0,0,2,0,1,0,1,0,0,0,1,0
45,31,1,0,2,56,0,1,1,0,1,0,0,0,0,0,0,0,0,1,1,0,0,0,0
45,2,0,1,0,26,5,0,1,0,0,1,0,0,0,0,1,0,0,1,1,1,0,1,1
7,45,0,0,3,35,4,0,1,0,0,1,1,0,2,1,1,1,2,1,0,0,0,1,0
45,11,0,0,0,35,4,0,1,1,2,1,1,2,4,1,1,1,2,0,0,2,0,1,0
44,45,0,0,2,24,1,0,1,0,1,2,0,0,4,0,0,1,1,1,0,0,0,1,0
45,28,0,1,3,31,1,0,1,2,2,1,1,0,1,1,1,2,2,0,0,0,0,0,1
44,45,0,1,4,38,3,0,0,2,2,2,2,0,2,1,1,1,2,1,0,1,0,1,0
44,45,0,0,3,28,5,0,1,1,0,1,1,1,3,2,0,0,1,1,0,1,0,1,1
20,45,0,0,3,20,2,0,1,0,0,1,1,0,0,2,1,0,0,1,0,2,0,1,1
45,41,0,0,4,29,2,0,1,2,2,2,2,2,4,1,1,1,2,1,0,2,0,1,0
45,41,0,1,0,27,3,0,1,2,0,2,2,2,0,2,1,1,0,1,2,0,0,1,0
44,45,0,0,4,29,2,0,1,0,0,0,0,0,0,1,1,1,2,0,0,2,0,1,0
45,22,0,0,4,43,4,1,1,0,0,1,0,0,0,0,1,1,0,1,1,0,0,1,0
45,6,0,0,0,36,0,1,1,0,1,0,0,0,4,1,1,1,1,1,1,0,0,1,0
17,45,0,1,3,29,2,0,1,0,0,1,1,0,4,0,1,1,1,0,0,0,0,1,1
45,20,0,1,0,31,1,0,1,0,0,0,0,0,4,1,1,1,2,1,1,0,0,1,0
45,28,0,1,3,24,2,1,1,0,0,1,1,0,0,1,0,1,2,2,2,1,0,1,1
45,20,0,0,4,37,2,1,1,0,1,1,0,0,0,2,1,1,0,1,1,0,0,0,0
45,41,0,0,2,43,5,0,1,2,2,2,2,0,2,1,1,2,2,0,2,2,0,1,1
44,45,0,0,4,32,2,0,1,0,1,1,0,0,2,0,0,1,1,0,0,0,0,1,0
45,45,0,0,0,50,2,1,1,1,2,1,1,0,0,1,1,0,0,1,0,1,0,1,0
7,45,0,1,3,28,4,0,0,2,2,2,2,2,0,1,1,1,2,1,1,1,1,0,1
45,0,0,1,3,40,4,0,1,2,2,1,1,2,0,0,1,1,0,1,1,2,0,1,1
45,19,0,1,1,26,1,0,0,0,0,1,1,0,1,0,1,0,0,1,0,1,0,0,1
45,2,1,1,3,34,4,0,1,1,2,1,1,2,2,1,1,1,1,1,1,1,0,1,1
44,45,0,0,0,40,1,0,1,0,1,1,0,0,4,0,1,2,1,1,0,0,0,1,1
45,32,0,1,2,31,1,0,1,2,2,1,1,2,2,1,1,2,2,1,1,2,0,0,1
45,11,0,1,2,21,1,0,1,2,0,1,0,2,0,1,1,2,2,0,0,0,0,1,1
44,45,1,0,4,24,0,1,1,1,2,1,1,2,4,1,1,0,0,1,0,2,0,1,0
45,7,0,1,3,35,4,0,0,2,1,2,2,2,1,0,0,1,2,1,0,2,0,0,1
3,45,0,0,1,29,4,0,0,0,0,1,1,0,0,0,1,2,2,0,0,0,0,1,0
45,2,2,1,3,42,2,0,0,2,2,1,1,0,1,2,2,2,2,0,0,1,1,0,1
45,28,0,0,4,43,5,0,0,2,2,0,2,2,0,1,1,1,2,1,0,0,0,1,0
27,45,0,0,1,26,2,0,1,1,2,1,1,2,3,1,1,2,2,2,2,0,0,1,1
41,45,0,1,3,25,4,0,1,2,2,2,1,0,2,1,1,1,2,1,1,1,0,0,0
20,45,0,0,4,31,2,0,1,0,1,1,1,0,0,2,2,0,0,1,1,0,0,1,0
45,37,0,0,4,39,5,1,0,1,2,1,1,0,3,2,0,0,0,1,0,1,0,0,0
45,2,0,0,2,35,4,0,1,1,0,1,1,2,0,1,1,1,2,1,1,0,0,1,1
45,41,0,1,3,40,4,0,1,2,2,0,0,2,4,0,1,1,1,1,1,0,0,1,1
44,45,1,0,3,38,2,1,1,1,0,1,1,2,2,0,0,1,2,1,0,2,0,1,1
45,2,0,1,1,46,2,0,1,0,0,1,1,0,0,0,1,1,0,1,1,1,0,1,1
45,16,0,0,4,29,4,0,1,0,0,1,0,0,2,0,1,1,0,1,1,0,0,0,0
45,2,0,1,3,37,1,0,1,2,2,0,0,2,0,0,1,2,2,1,1,0,0,1,1
44,45,0,0,2,32,1,0,1,0,0,1,1,0,0,0,1,2,2,1,0,1,1,1,1
44,45,0,0,0,32,4,1,1,1,0,1,1,0,0,2,2,1,1,1,0,1,0,1,0
45,2,0,1,3,40,5,1,1,2,2,2,2,0,0,2,0,1,0,1,1,1,1,1,0
44,45,0,0,0,23,2,0,1,2,1,2,0,0,4,1,1,1,2,0,0,2,0,1,0
42,45,0,0,2,20,5,0,1,2,2,2,2,2,2,1,1,1,1,1,0,2,0,0,0
45,36,0,1,3,28,4,0,1,0,1,1,0,0,2,1,1,1,2,1,2,0,0,1,0
45,38,0,1,2,36,5,0,0,0,0,2,2,0,2,0,0,1,1,1,1,0,0,1,0
45,3,0,0,0,30,5,0,1,2,2,2,2,2,2,0,0,0,1,1,1,0,0,0,0
7,45,0,1,3,34,5,0,1,2,1,2,2,2,0,0,1,0,0,1,0,0,0,1,0
45,29,0,1,3,25,5,0,1,2,2,2,1,0,0,2,2,0,0,1,1,1,0,0,1
44,45,0,0,3,29,1,0,1,1,0,1,1,0,1,1,1,1,1,1,0,1,0,1,1
28,45,0,0,1,22,4,0,1,1,0,1,1,0,0,1,1,0,1,1,2,0,0,0,0
39,45,0,0,0,31,1,1,1,1,0,1,1,1,0,1,1,1,1,1,0,1,0,1,0
45,28,1,0,1,27,0,1,1,2,2,2,2,2,4,0,0,1,2,1,0,2,0,2,1
45,31,0,0,3,31,1,1,1,2,2,2,2,2,4,1,1,1,2,1,1,2,0,1,1
44,45,0,0,3,39,5,0,1,2,2,1,2,0,0,2,1,1,1,1,0,1,1,0,1
45,10,0,1,2,30,2,0,1,2,1,1,1,0,2,0,1,1,2,1,1,0,0,2,1
45,41,0,0,4,33,4,0,1,1,0,1,1,0,1,0,1,1,1,1,1,0,0,0,0
45,36,1,1,2,32,0,1,1,1,2,1,1,0,3,2,1,1,0,1,0,0,0,1,1
45,12,0,0,0,24,2,0,1,0,1,1,0,0,0,1,1,1,2,1,1,0,0,1,0
7,45,0,1,3,25,5,0,1,2,2,1,0,0,0,2,0,1,0,1,1,1,0,1,1
6,38,0,0,3,25,2,1,1,1,0,1,1,0,0,0,0,2,1,0,1,1,0,0,1
45,41,0,0,3,32,2,0,1,2,0,2,2,2,1,0,1,1,2,1,0,2,0,1,1
44,45,0,1,3,25,2,1,1,1,0,1,1,2,4,1,1,1,2,1,0,2,0,1,1
45,11,0,1,2,37,1,0,0,2,2,2,2,0,2,0,0,1,2,0,0,0,0,1,1
45,11,0,0,3,19,0,0,1,0,1,1,1,0,0,1,1,1,2,0,0,0,0,1,0
44,45,0,1,3,32,4,0,1,1,0,1,0,0,2,1,1,1,2,1,1,0,0,1,1
45,31,0,1,3,33,2,0,1,0,2,1,2,0,2,1,1,2,2,1,1,0,0,1,1
7,45,0,1,3,35,2,0,1,0,0,1,1,0,0,0,0,1,1,1,1,1,0,1,0
45,41,0,1,1,41,5,0,1,2,0,2,2,0,1,0,1,2,1,1,0,1,1,1,1
45,2,0,0,3,34,0,0,1,1,1,1,1,0,4,1,1,1,2,1,0,2,0,0,0
45,37,0,0,1,37,4,1,1,0,1,1,1,2,1,2,1,1,1,1,2,1,1,0,1
39,45,0,1,1,36,1,0,0,1,2,1,1,0,2,1,1,1,2,1,2,2,0,1,1
45,37,0,1,3,31,2,0,1,2,2,1,0,0,2,0,1,1,2,0,2,0,0,1,1
45,2,0,0,4,33,5,1,1,0,0,0,0,0,0,2,1,1,0,1,0,2,0,1,0
17,45,1,0,3,26,4,1,1,1,1,2,2,2,4,1,1,1,1,0,0,2,0,2,1
21,45,0,0,0,45,5,1,1,0,1,1,1,0,0,2,1,2,1,1,1,1,1,1,0
45,33,0,0,4,23,2,0,1,0,0,0,1,0,0,1,1,2,2,1,0,0,0,1,0
45,0,1,1,1,1,0,1,1,2,2,2,2,2,4,2,2,2,2,2,2,2,1,2,1
45,40,0,0,4,30,4,0,0,0,1,1,0,0,0,0,0,1,1,1,1,0,0,1,0
45,32,1,0,0,30,0,1,1,1,2,1,1,2,2,0,0,1,1,0,0,0,0,1,0
45,22,1,0,0,31,0,1,1,1,0,1,1,2,1,1,1,1,1,1,0,2,0,1,0
45,10,0,1,3,25,2,0,1,0,1,1,1,0,4,0,1,1,0,1,1,0,1,1,1
45,2,0,1,3,22,3,0,1,2,2,1,0,0,0,1,1,1,1,1,1,1,1,0,1
7,45,0,0,0,21,2,0,1,0,1,0,1,0,0,2,0,0,0,1,0,0,0,1,0
45,2,0,0,0,31,5,0,1,2,0,1,2,0,0,1,1,1,1,1,1,0,0,1,0
45,36,0,1,4,29,1,0,1,0,1,0,0,0,0,1,1,1,2,1,1,0,0,1,0
7,45,0,0,1,32,5,0,0,0,1,0,0,0,0,0,1,1,1,1,1,0,0,0,1
45,2,0,0,4,44,1,0,1,0,1,1,1,0,0,2,1,0,0,1,1,0,0,0,0
45,2,0,0,3,45,0,0,1,2,0,1,1,2,1,1,1,2,2,1,1,2,0,0,1
45,10,0,0,2,29,4,0,1,2,2,1,1,0,0,0,1,1,0,1,0,0,0,1,1
45,28,0,1,2,31,1,0,1,1,0,1,0,0,1,2,2,1,0,1,1,1,1,1,1
45,36,0,1,3,39,5,0,1,2,0,2,2,0,0,0,0,1,2,0,0,0,1,1,0
6,45,0,0,4,26,1,0,1,1,0,1,1,1,4,2,0,0,0,1,0,0,0,1,0
17,45,1,1,2,33,0,0,0,1,0,1,1,0,1,2,2,0,0,0,1,2,1,1,1
45,31,0,0,4,24,5,0,1,2,2,2,2,2,2,1,1,1,1,2,2,2,0,0,0
45,41,0,1,3,32,1,0,1,2,2,2,2,0,0,2,1,1,0,1,1,0,0,1,0
44,45,0,0,0,30,4,0,1,1,0,1,0,0,4,1,1,1,2,1,0,2,0,1,0
45,31,0,1,2,34,3,1,1,2,1,1,0,0,0,2,0,1,1,1,1,0,0,0,1
45,25,0,1,3,37,2,1,1,2,2,1,0,0,0,2,0,0,0,1,0,0,0,0,1
45,6,0,0,1,33,2,1,1,2,2,1,1,2,0,0,1,1,0,1,0,0,0,1,1
44,45,0,0,0,32,4,0,1,1,0,1,1,0,0,0,1,1,0,1,2,2,0,1,0
45,12,0,0,4,39,0,1,1,1,2,1,1,0,3,0,0,1,2,0,0,1,0,1,0
13,45,1,1,1,35,0,0,1,1,2,2,1,0,2,1,1,1,1,0,2,2,0,1,1
45,32,0,1,2,40,5,0,0,2,0,0,0,0,2,0,0,0,0,1,1,0,0,0,1
45,10,2,1,3,42,1,0,1,2,2,1,1,1,3,0,1,2,2,1,0,1,0,0,1
44,45,0,0,0,25,4,1,1,0,1,0,0,0,4,1,1,2,2,1,1,0,0,1,0
45,31,0,0,3,39,3,0,1,2,1,2,0,2,0,2,0,2,2,1,0,0,0,1,1
7,45,0,1,3,23,4,0,1,2,2,1,1,2,4,1,1,2,2,1,1,2,0,1,1
44,45,0,1,0,21,4,0,0,1,0,1,1,2,2,0,1,1,1,1,0,0,0,1,0
45,34,0,0,4,31,5,1,1,2,2,2,2,2,4,1,1,1,2,0,2,2,0,1,0
45,31,0,0,0,32,1,0,1,2,1,0,2,0,2,1,1,0,1,0,2,0,0,1,0
44,45,0,1,2,37,5,0,0,2,2,2,2,2,1,2,0,1,0,1,2,1,1,1,1
7,45,1,0,4,43,4,1,1,1,1,1,1,0,2,0,1,2,2,2,2,0,0,1,0
45,41,0,0,0,18,2,0,1,0,1,0,0,0,4,1,1,1,1,1,0,2,0,1,0
45,35,0,0,3,34,1,0,1,0,0,1,1,0,0,2,1,1,0,1,0,0,0,1,0
45,39,0,1,3,38,5,0,1,2,1,2,2,2,0,2,1,0,0,1,1,1,0,1,1
20,45,1,0,3,26,4,0,0,1,0,1,1,0,2,0,0,1,1,1,1,0,0,0,0
45,41,0,0,3,32,2,0,1,2,2,2,2,2,2,0,1,1,2,1,0,2,0,0,1
45,2,0,0,3,22,5,0,1,0,0,0,0,0,0,0,1,1,0,1,0,0,0,1,0
5,45,0,1,2,28,4,0,1,1,0,1,1,1,0,0,1,2,2,1,1,0,1,1,1
7,45,0,0,1,25,4,1,0,0,0,1,0,0,1,2,0,0,0,1,0,0,0,1,1
44,45,1,0,4,28,0,1,1,1,2,1,1,2,4,0,0,0,0,1,1,2,0,1,0
45,41,0,1,1,43,5,1,1,2,1,1,0,0,3,2,0,0,0,1,1,1,0,1,1
44,45,0,0,4,26,2,0,1,1,0,1,1,0,2,1,1,1,1,1,1,0,0,1,1
45,36,0,0,3,34,1,0,1,0,0,2,0,2,0,0,1,1,0,1,1,0,0,1,1
45,41,0,0,2,32,5,0,1,2,2,2,2,2,2,0,1,1,1,1,1,0,0,1,1
45,29,0,0,3,36,2,0,1,2,0,1,2,0,0,0,1,1,1,1,0,0,1,1,1
45,15,0,1,2,26,4,0,1,0,0,1,1,0,0,0,1,1,2,1,1,0,0,1,0
7,45,0,0,0,41,3,0,1,2,1,1,0,0,2,1,1,1,1,1,1,0,0,1,1
44,45,0,1,1,24,2,0,0,0,2,1,1,1,2,2,0,1,2,1,0,1,1,1,1
45,2,0,1,3,23,4,0,1,1,2,1,1,0,4,1,1,1,2,0,0,2,0,1,1
44,45,0,0,1,55,5,0,0,2,2,2,2,0,2,2,0,0,1,1,0,1,1,1,1
7,45,0,0,4,28,5,0,1,2,1,0,0,0,2,1,1,1,2,1,1,0,0,0,0
45,34,0,0,0,31,5,0,1,0,0,1,0,0,2,2,1,1,0,1,1,0,0,1,0
45,30,0,1,4,37,3,0,0,2,2,1,1,2,4,0,1,0,0,1,1,1,0,1,0
8,45,1,0,3,40,0,1,1,1,2,1,1,0,2,1,1,1,1,0,0,0,0,1,0
45,22,0,1,3,37,5,0,0,2,2,2,2,2,2,1,1,1,1,1,0,2,0,0,1
45,10,2,0,1,37,4,0,1,2,1,1,2,2,2,1,1,1,2,1,0,2,0,0,1
7,45,1,1,3,31,0,1,1,1,2,1,1,2,2,1,1,0,0,1,1,2,0,1,0
45,19,0,0,4,27,2,0,1,2,1,1,0,0,0,1,1,2,2,1,1,0,0,1,0
33,45,0,1,2,29,4,0,1,1,2,1,1,2,3,0,1,1,1,1,2,1,0,1,1
45,41,0,0,4,40,5,0,0,2,1,0,0,0,2,0,1,1,1,1,0,0,0,1,0
44,45,0,0,0,25,2,0,1,1,0,1,1,0,1,2,0,0,0,1,0,1,0,1,0
45,19,0,0,0,34,2,0,1,1,0,1,1,0,4,0,1,1,1,1,0,0,0,1,0
41,45,0,0,2,23,4,0,1,0,0,1,0,0,4,1,1,1,2,0,0,2,0,1,0
45,2,0,0,3,43,5,0,1,2,2,2,2,2,2,2,0,0,0,1,2,0,0,1,1
45,20,0,0,0,31,2,0,1,0,1,1,0,0,0,0,1,0,1,1,0,0,0,1,0
45,41,1,1,2,33,0,1,1,1,2,2,2,1,3,1,1,2,2,1,1,2,1,1,1
45,7,0,1,4,28,1,0,1,2,0,1,0,2,2,1,1,1,2,1,0,2,1,1,0
45,37,0,0,3,38,5,1,1,2,0,2,2,2,4,1,1,2,2,1,1,0,0,1,1
45,25,0,0,0,34,4,1,1,2,1,0,0,0,2,0,0,0,1,1,0,0,0,1,0
10,45,0,0,4,38,2,1,1,1,2,1,1,2,2,1,1,2,2,0,2,1,0,1,0
44,45,0,1,3,27,4,0,1,1,0,1,1,2,2,0,0,2,2,2,2,2,0,1,1
45,2,0,1,1,37,2,0,1,2,2,1,1,2,0,0,1,1,1,1,2,0,0,0,1
45,36,0,1,0,34,4,1,1,2,0,1,1,0,0,0,1,0,0,1,1,0,0,1,0
17,45,0,0,4,30,2,0,1,0,0,1,0,2,2,1,1,1,0,0,0,0,0,1,0
45,11,0,0,3,32,2,0,1,2,2,2,0,2,0,1,1,1,2,1,0,0,0,1,1
28,45,1,0,0,37,0,1,1,0,1,0,0,0,4,2,2,1,1,1,1,0,0,1,0
45,29,0,0,3,36,1,1,1,2,2,1,1,0,3,0,0,1,1,0,0,0,0,1,1
21,45,0,1,0,34,0,1,1,1,0,1,1,0,0,0,1,1,2,1,1,0,0,1,1
45,7,0,1,3,28,5,0,1,0,1,1,0,0,1,0,0,0,0,1,1,1,0,1,1
44,45,0,0,4,32,5,0,0,1,0,1,0,0,0,0,1,1,2,1,2,1,0,0,0
12,45,0,1,1,33,1,0,1,1,2,1,1,0,2,1,1,1,2,0,0,0,1,1,0
7,45,2,0,0,27,4,0,1,0,1,0,0,0,2,1,1,1,1,0,2,2,0,1,0
7,45,0,0,3,26,4,1,1,1,0,1,1,0,3,2,0,1,1,1,0,0,0,1,0
45,2,0,1,1,28,1,1,1,2,0,1,0,0,0,2,2,1,1,1,1,1,1,0,1
44,45,0,1,4,43,5,0,0,0,0,1,1,0,4,0,1,1,2,1,0,0,0,1,0
45,6,0,0,3,29,2,0,1,2,2,1,1,0,0,0,1,1,1,1,0,1,1,0,1
7,45,0,1,1,26,2,1,1,0,0,0,0,0,4,1,1,2,2,1,1,2,0,1,1
7,45,0,0,0,27,2,0,1,2,1,2,1,2,4,1,1,2,2,0,0,2,0,1,0
45,27,0,0,4,32,4,0,1,1,2,1,0,0,4,1,1,1,2,1,0,0,0,1,0
44,45,0,0,3,30,2,0,1,0,0,1,0,0,0,2,0,0,0,1,0,0,0,1,1
45,2,0,1,3,26,5,0,1,2,0,2,0,0,1,2,0,0,0,1,0,1,0,1,1
44,45,1,1,4,32,0,0,1,1,2,1,1,2,2,1,1,0,2,1,0,1,0,1,0
45,32,0,1,3,46,4,0,1,0,2,1,0,0,0,2,0,0,1,1,0,0,0,1,1
45,2,1,1,3,24,0,1,1,1,0,0,0,0,0,1,1,1,1,1,1,0,1,0,1
45,41,0,0,4,26,5,0,1,0,1,0,0,0,0,1,1,1,2,1,1,0,1,1,0
45,2,0,1,4,25,5,0,1,2,2,2,2,2,4,1,1,1,2,0,2,2,0,1,0
7,45,0,0,0,29,5,0,0,2,1,2,2,2,1,0,1,1,0,1,0,0,1,1,1
45,32,0,0,0,26,5,0,0,2,2,1,0,0,1,0,1,0,2,1,1,0,0,1,0
20,45,1,0,4,26,1,0,1,1,0,1,1,2,4,1,1,1,2,1,1,2,0,1,0
33,45,0,0,2,28,4,1,1,1,0,1,1,0,0,1,1,2,2,0,2,2,0,1,0
44,45,1,1,2,38,0,1,0,1,0,1,1,2,3,0,1,0,0,1,1,1,0,1,1
45,2,0,0,4,22,5,0,1,2,1,2,0,2,0,1,1,1,2,1,0,2,0,1,0
45,6,1,0,0,44,0,1,1,0,0,1,1,2,1,1,1,0,0,1,1,0,0,1,0
45,37,0,1,3,32,4,0,1,0,0,1,1,1,0,2,0,1,1,1,0,1,1,0,1
45,10,0,0,4,30,5,0,0,2,0,2,2,0,0,2,0,0,0,1,1,0,0,1,0
45,28,0,0,2,27,4,0,1,1,2,1,1,0,4,1,1,2,2,0,0,0,0,1,1
45,2,0,0,0,62,5,0,1,2,2,0,2,0,0,0,1,1,2,0,0,2,0,1,0
45,2,0,0,1,60,5,1,1,0,0,2,0,0,2,0,0,1,0,1,0,0,0,1,1
45,41,0,1,2,26,5,0,1,2,1,0,0,0,0,0,1,1,1,1,1,0,0,0,1
45,39,0,0,0,48,5,0,1,2,2,2,2,2,0,0,0,2,2,1,0,2,1,1,1
45,6,0,0,4,34,5,1,1,0,1,0,0,0,0,1,1,1,2,1,0,2,0,1,0
45,37,0,0,2,35,5,1,1,2,2,1,2,2,4,1,1,2,2,0,0,2,0,1,1
0,45,0,1,3,26,1,0,0,1,2,2,2,0,2,1,1,2,2,1,1,0,0,0,0
45,32,0,1,1,34,1,0,1,2,2,1,1,2,4,1,1,2,2,0,0,0,0,1,1
45,41,0,0,0,32,3,0,0,2,1,2,2,0,4,0,1,0,0,1,1,2,0,1,1
5,45,1,0,0,22,4,1,1,0,0,1,1,0,2,1,1,2,2,0,1,0,0,1,0
17,45,0,0,3,31,4,1,1,1,0,1,1,1,4,1,1,2,2,0,0,2,0,1,0
21,45,0,0,2,30,1,0,1,1,2,2,2,0,2,2,1,1,0,1,1,1,1,1,1
9,45,0,0,1,26,4,0,1,1,0,1,1,1,3,2,1,0,0,1,0,2,0,1,0
45,11,0,0,0,25,5,0,0,0,0,1,1,0,0,1,1,1,2,1,1,0,0,1,0
45,42,0,1,1,39,2,1,1,2,2,2,2,0,2,2,1,1,2,1,1,1,0,1,1
17,45,0,0,3,41,5,0,1,0,0,1,1,0,1,1,1,2,2,1,1,2,0,1,1
45,19,0,0,3,38,5,0,0,2,2,2,2,0,0,1,1,1,2,1,1,0,0,1,1
0,45,0,0,3,48,4,0,1,1,0,1,1,0,2,2,1,1,0,1,0,1,1,1,1
45,10,0,0,0,23,1,0,0,0,0,0,0,0,0,0,1,1,1,0,0,0,0,1,0
7,45,1,1,3,31,1,1,1,0,1,0,0,0,0,0,0,1,2,1,1,2,0,0,1